<?xml version="1.0" encoding="UTF-8" standalone="no"?><!DOCTYPE svg PUBLIC "-//W3C//DTD SVG 1.1//EN" "http://www.w3.org/Graphics/SVG/1.1/DTD/svg11.dtd">
<svg width="100%" height="100%" viewBox="0 0 48 48" version="1.1" 
  xmlns="http://www.w3.org/2000/svg" 
  xmlns:xlink="http://www.w3.org/1999/xlink" xml:space="preserve" 
  xmlns:serif="http://www.serif.com/" style="fill-rule:evenodd;clip-rule:evenodd;stroke-linejoin:round;stroke-miterlimit:2;">
  <path d="M21.946,0.597l0.072,0.002l0.131,0.005l0.13,0.009l0.126,0.01l0.122,0.012l0.226,0.023l0.107,0.011l0.102,0.011l0.096,0.008l0.1,0.007l0.241,0.017l0.246,0.02l0.126,0.012l0.124,0.012l0.124,0.013l0.123,0.014l0.124,0.014l0.124,0.016l0.124,0.017l0.123,0.017l0.124,0.019l0.123,0.019l0.124,0.021l0.123,0.021l0.123,0.023l0.124,0.023l0.123,0.025l0.123,0.026l0.123,0.027l0.124,0.028l0.123,0.03l0.123,0.03l0.123,0.032l0.123,0.033l0.08,0.022l0.135,-0.005l0.158,-0.004l0.16,-0.003l0.16,-0.002l0.161,0l0.162,0.002l0.162,0.004l0.163,0.005l0.164,0.008l0.164,0.01l0.164,0.012l0.165,0.015l0.165,0.017l0.164,0.02l0.165,0.022l0.165,0.026l0.165,0.029l0.163,0.031l0.084,0.018l0.082,0.018l0.082,0.019l0.082,0.02l0.082,0.021l0.082,0.022l0.082,0.022l0.081,0.024l0.081,0.025l0.081,0.026l0.081,0.026l0.081,0.028l0.08,0.029l0.083,0.031l0.057,0.023l0.059,0.024l0.058,0.026l0.057,0.027l0.056,0.028l0.055,0.029l0.054,0.03l0.054,0.03l0.052,0.032l0.055,0.034l0.096,0.064l0.097,0.069l0.094,0.071l0.09,0.073l0.087,0.075l0.084,0.077l0.082,0.078l0.079,0.079l0.076,0.08l0.074,0.08l0.072,0.082l0.069,0.082l0.068,0.082l0.065,0.082l0.063,0.082l0.062,0.082l0.059,0.082l0.058,0.082l0.056,0.081l0.055,0.08l0.054,0.081l0.099,0.154l0.095,0.15l0.089,0.144l0.229,0.374l0.228,0.377l0.114,0.191l0.113,0.192l0.114,0.193l0.112,0.194l0.112,0.195l0.11,0.197l0.109,0.197l0.109,0.199l0.106,0.2l0.105,0.201l0.103,0.202l0.105,0.211l0.032,0.069l0.032,0.077l0.028,0.076l0.026,0.075l0.022,0.074l0.019,0.073l0.016,0.073l0.015,0.071l0.012,0.07l0.011,0.069l0.008,0.067l0.007,0.067l0.006,0.066l0.005,0.068l0.006,0.121l0.002,0.12l-0.001,0.116l-0.002,0.111l-0.004,0.106l-0.009,0.189l-0.008,0.173l-0.004,0.108l-0.006,0.113l-0.007,0.114l-0.008,0.113l-0.008,0.113l-0.01,0.113l-0.01,0.112l-0.012,0.113l-0.012,0.112l-0.013,0.114l-0.027,0.221l-0.031,0.222l-0.034,0.221l-0.036,0.22l-0.038,0.219l-0.041,0.218l-0.043,0.217l-0.045,0.216l-0.046,0.214l-0.048,0.213l-0.05,0.214l-0.042,0.169l-0.044,0.169l-0.047,0.166l-0.048,0.164l-0.051,0.162l-0.052,0.16l-0.055,0.158l-0.056,0.156l-0.058,0.154l-0.06,0.152l-0.062,0.151l-0.064,0.149l-0.065,0.147l-0.066,0.146l-0.069,0.145l-0.069,0.143l-0.071,0.143l-0.073,0.141l-0.074,0.14l-0.075,0.14l-0.076,0.138l-0.077,0.138l-0.079,0.138l-0.079,0.137l-0.081,0.137l-0.081,0.136l-0.083,0.137l-0.083,0.137l-0.169,0.272l-0.171,0.272l-0.061,0.099l-0.062,0.101l-0.132,0.223l-0.07,0.117l-0.073,0.122l-0.077,0.125l-0.081,0.127l-0.083,0.127l-0.046,0.067l-0.046,0.065l-0.047,0.066l-0.049,0.065l-0.05,0.066l-0.052,0.065l-0.054,0.066l-0.055,0.065l-0.058,0.064l-0.06,0.064l-0.062,0.063l-0.064,0.063l-0.067,0.062l-0.07,0.061l-0.094,0.077l-0.095,0.073l-0.097,0.069l-0.097,0.065l-0.098,0.061l-0.098,0.058l-0.099,0.053l-0.099,0.05l-0.098,0.047l-0.098,0.043l-0.098,0.041l-0.097,0.037l-0.096,0.035l-0.095,0.032l-0.095,0.03l-0.094,0.028l-0.092,0.025l-0.091,0.025l-0.091,0.022l-0.091,0.022l-0.172,0.039l-0.169,0.037l-0.326,0.068l-0.155,0.033l-0.158,0.037l-0.134,0.031l-0.142,0.032l-0.141,0.03l-0.142,0.028l-0.141,0.027l-0.142,0.026l-0.143,0.024l-0.142,0.023l-0.142,0.021l-0.143,0.02l-0.143,0.018l-0.143,0.018l-0.142,0.015l-0.143,0.015l-0.144,0.013l-0.143,0.012l-0.143,0.011l-0.143,0.009l-0.143,0.009l-0.144,0.007l-0.143,0.006l-0.143,0.004l-0.143,0.004l-0.144,0.002l-0.143,0.001l-0.143,0.001l-0.143,-0.001l-0.143,-0.003l-0.143,-0.003l-0.143,-0.004l-0.142,-0.005l-0.143,-0.006l-0.143,-0.007l-0.142,-0.009l-0.142,-0.009l-0.142,-0.01l-0.142,-0.011l-0.142,-0.012l-0.142,-0.013l-0.141,-0.013l-0.141,-0.015l-0.141,-0.016l-0.141,-0.016l-0.14,-0.017l-0.141,-0.018l-0.14,-0.019l-0.14,-0.019l-0.141,-0.021l-0.276,-0.042l-0.277,-0.046l-0.276,-0.048l-0.275,-0.052l-0.273,-0.053l-0.271,-0.056l-0.27,-0.058l-0.269,-0.061l-0.207,-0.049l-0.208,-0.052l-0.107,-0.027l-0.107,-0.029l-0.106,-0.029l-0.107,-0.031l-0.108,-0.031l-0.108,-0.033l-0.107,-0.034l-0.109,-0.035l-0.108,-0.037l-0.108,-0.038l-0.109,-0.039l-0.108,-0.041l-0.108,-0.043l-0.108,-0.044l-0.108,-0.045l-0.108,-0.048l-0.108,-0.049l-0.107,-0.051l-0.107,-0.053l-0.106,-0.055l-0.106,-0.057l-0.105,-0.059l-0.105,-0.062l-0.104,-0.063l-0.103,-0.066l-0.102,-0.068l-0.101,-0.071l-0.099,-0.072l-0.072,-0.055l-0.069,-0.054l-0.069,-0.055l-0.067,-0.057l-0.066,-0.057l-0.065,-0.057l-0.064,-0.059l-0.063,-0.06l-0.061,-0.06l-0.061,-0.061l-0.059,-0.061l-0.059,-0.063l-0.057,-0.063l-0.056,-0.064l-0.055,-0.064l-0.054,-0.066l-0.053,-0.065l-0.052,-0.067l-0.05,-0.067l-0.05,-0.067l-0.049,-0.068l-0.047,-0.069l-0.047,-0.069l-0.045,-0.07l-0.044,-0.07l-0.044,-0.071l-0.042,-0.071l-0.041,-0.072l-0.04,-0.072l-0.04,-0.072l-0.038,-0.073l-0.037,-0.073l-0.037,-0.074l-0.035,-0.074l-0.034,-0.074l-0.034,-0.075l-0.032,-0.075l-0.032,-0.075l-0.031,-0.076l-0.029,-0.075l-0.029,-0.077l-0.028,-0.076l-0.028,-0.077l-0.026,-0.077l-0.025,-0.077l-0.026,-0.079l-0.046,-0.153l-0.043,-0.156l-0.04,-0.157l-0.038,-0.157l-0.034,-0.158l-0.031,-0.159l-0.029,-0.158l-0.025,-0.16l-0.023,-0.159l-0.021,-0.16l-0.018,-0.159l-0.015,-0.16l-0.013,-0.16l-0.01,-0.16l-0.009,-0.16l-0.006,-0.159l-0.004,-0.16l-0.001,-0.159l0,-0.159l0.002,-0.159l0.004,-0.158l0.006,-0.157l0.008,-0.157l0.01,-0.157l0.011,-0.156l0.013,-0.155l0.014,-0.154l0.016,-0.153l0.018,-0.153l0.019,-0.152l0.02,-0.15l0.022,-0.15l0.023,-0.148l0.024,-0.148l0.025,-0.146l0.027,-0.144l0.028,-0.144l0.028,-0.142l0.03,-0.14l0.03,-0.139l0.032,-0.138l0.033,-0.137l0.034,-0.135l0.036,-0.135l0.037,-0.134l0.039,-0.132l0.04,-0.131l0.042,-0.13l0.043,-0.129l0.044,-0.128l0.046,-0.127l0.047,-0.126l0.049,-0.124l0.05,-0.124l0.051,-0.122l0.053,-0.121l0.054,-0.121l0.055,-0.119l0.056,-0.118l0.058,-0.117l0.059,-0.116l0.06,-0.115l0.062,-0.114l0.062,-0.113l0.064,-0.112l0.065,-0.111l0.066,-0.11l0.067,-0.11l0.069,-0.108l0.069,-0.107l0.071,-0.106l0.072,-0.106l0.072,-0.104l0.074,-0.104l0.075,-0.103l0.076,-0.102l0.076,-0.101l0.078,-0.1l0.079,-0.1l0.079,-0.098l0.081,-0.098l0.081,-0.097l0.083,-0.097l0.083,-0.096l0.084,-0.095l0.085,-0.094l0.086,-0.094l0.087,-0.093l0.087,-0.092l0.088,-0.092l0.089,-0.091l0.09,-0.09l0.091,-0.09l0.091,-0.09l0.092,-0.089l0.093,-0.088l0.093,-0.088l0.095,-0.087l0.095,-0.088l0.191,-0.172l0.194,-0.171l0.198,-0.171l0.162,-0.136l0.085,-0.07l0.086,-0.069l0.086,-0.069l0.089,-0.069l0.09,-0.069l0.091,-0.069l0.092,-0.068l0.094,-0.068l0.096,-0.067l0.096,-0.066l0.098,-0.066l0.1,-0.065l0.1,-0.063l0.103,-0.063l0.103,-0.062l0.105,-0.06l0.106,-0.059l0.107,-0.057l0.109,-0.056l0.11,-0.054l0.112,-0.052l0.113,-0.05l0.114,-0.048l0.116,-0.046l0.117,-0.043l0.119,-0.041l0.12,-0.038l0.121,-0.035l0.123,-0.032l0.124,-0.029l0.081,-0.016l0.079,-0.015l0.079,-0.011l0.078,-0.01l0.077,-0.008l0.076,-0.007l0.075,-0.004l0.074,-0.003l0.073,-0.002l0.071,-0.001l0.071,0.001Zm-0.111,2l-0.038,0.001l-0.036,0.001l-0.035,0.002l-0.034,0.003l-0.033,0.004l-0.032,0.004l-0.03,0.004l-0.03,0.005l-0.028,0.006l-0.071,0.017l-0.071,0.018l-0.073,0.021l-0.073,0.024l-0.074,0.025l-0.075,0.028l-0.076,0.03l-0.076,0.032l-0.077,0.034l-0.077,0.036l-0.078,0.038l-0.078,0.04l-0.078,0.041l-0.078,0.044l-0.078,0.045l-0.079,0.046l-0.078,0.048l-0.078,0.05l-0.078,0.051l-0.078,0.052l-0.077,0.053l-0.077,0.054l-0.077,0.056l-0.076,0.056l-0.076,0.056l-0.075,0.058l-0.074,0.058l-0.074,0.059l-0.073,0.059l-0.07,0.058l-0.144,0.121l-0.181,0.155l-0.178,0.157l-0.175,0.158l-0.085,0.078l-0.085,0.079l-0.084,0.079l-0.083,0.079l-0.082,0.08l-0.082,0.079l-0.08,0.08l-0.079,0.08l-0.079,0.081l-0.077,0.08l-0.077,0.081l-0.075,0.081l-0.075,0.081l-0.073,0.082l-0.073,0.082l-0.071,0.082l-0.071,0.083l-0.07,0.083l-0.068,0.083l-0.068,0.084l-0.066,0.084l-0.066,0.084l-0.064,0.086l-0.064,0.085l-0.062,0.086l-0.062,0.086l-0.06,0.087l-0.06,0.088l-0.058,0.088l-0.058,0.088l-0.056,0.09l-0.055,0.089l-0.055,0.091l-0.053,0.091l-0.052,0.091l-0.051,0.093l-0.05,0.093l-0.05,0.094l-0.048,0.094l-0.047,0.095l-0.045,0.097l-0.045,0.097l-0.044,0.097l-0.043,0.099l-0.042,0.099l-0.04,0.101l-0.04,0.101l-0.038,0.103l-0.038,0.103l-0.036,0.104l-0.035,0.106l-0.034,0.106l-0.033,0.108l-0.032,0.108l-0.03,0.11l-0.03,0.111l-0.028,0.112l-0.028,0.115l-0.027,0.119l-0.027,0.122l-0.026,0.124l-0.025,0.124l-0.024,0.126l-0.024,0.127l-0.022,0.128l-0.021,0.129l-0.02,0.129l-0.019,0.131l-0.018,0.131l-0.016,0.132l-0.016,0.133l-0.014,0.133l-0.012,0.133l-0.011,0.134l-0.01,0.134l-0.008,0.134l-0.007,0.134l-0.005,0.134l-0.003,0.134l-0.002,0.134l0,0.133l0.001,0.133l0.003,0.133l0.005,0.132l0.007,0.132l0.009,0.131l0.01,0.131l0.013,0.129l0.014,0.129l0.016,0.127l0.019,0.127l0.02,0.125l0.022,0.125l0.025,0.123l0.026,0.121l0.028,0.12l0.031,0.119l0.033,0.117l0.035,0.118l0.017,0.055l0.019,0.057l0.019,0.056l0.02,0.056l0.021,0.055l0.02,0.055l0.022,0.055l0.022,0.054l0.022,0.053l0.023,0.053l0.024,0.053l0.024,0.052l0.025,0.052l0.025,0.051l0.025,0.05l0.027,0.05l0.027,0.05l0.027,0.049l0.028,0.049l0.029,0.048l0.029,0.047l0.03,0.047l0.03,0.047l0.031,0.046l0.031,0.045l0.032,0.045l0.033,0.045l0.033,0.044l0.034,0.043l0.035,0.043l0.035,0.042l0.035,0.042l0.037,0.042l0.037,0.04l0.037,0.041l0.039,0.04l0.039,0.039l0.04,0.039l0.04,0.038l0.041,0.038l0.042,0.037l0.043,0.037l0.043,0.036l0.044,0.036l0.045,0.035l0.044,0.034l0.067,0.048l0.067,0.047l0.068,0.046l0.07,0.044l0.071,0.044l0.073,0.042l0.074,0.042l0.075,0.04l0.076,0.04l0.078,0.038l0.079,0.038l0.08,0.037l0.081,0.035l0.082,0.035l0.084,0.034l0.084,0.033l0.085,0.032l0.086,0.031l0.087,0.031l0.087,0.029l0.089,0.029l0.089,0.028l0.089,0.028l0.091,0.026l0.09,0.026l0.091,0.025l0.092,0.024l0.09,0.024l0.187,0.046l0.185,0.044l0.251,0.056l0.252,0.055l0.253,0.052l0.254,0.05l0.255,0.047l0.255,0.045l0.256,0.043l0.258,0.039l0.128,0.019l0.128,0.018l0.129,0.017l0.129,0.016l0.128,0.016l0.129,0.015l0.129,0.014l0.129,0.014l0.129,0.012l0.129,0.012l0.128,0.011l0.129,0.01l0.129,0.009l0.129,0.008l0.128,0.007l0.129,0.007l0.128,0.006l0.129,0.004l0.128,0.004l0.128,0.003l0.128,0.002l0.128,0l0.128,0l0.127,-0.001l0.128,-0.002l0.127,-0.003l0.127,-0.004l0.127,-0.005l0.126,-0.006l0.126,-0.008l0.126,-0.008l0.126,-0.009l0.126,-0.011l0.125,-0.012l0.125,-0.012l0.124,-0.014l0.125,-0.015l0.124,-0.016l0.123,-0.018l0.124,-0.018l0.122,-0.02l0.123,-0.02l0.122,-0.022l0.122,-0.024l0.122,-0.024l0.121,-0.026l0.12,-0.027l0.127,-0.029l0.174,-0.04l0.175,-0.038l0.329,-0.069l0.153,-0.033l0.148,-0.033l0.068,-0.017l0.067,-0.017l0.066,-0.017l0.064,-0.018l0.062,-0.018l0.059,-0.019l0.058,-0.02l0.057,-0.02l0.054,-0.021l0.053,-0.022l0.051,-0.023l0.05,-0.023l0.049,-0.025l0.047,-0.026l0.047,-0.027l0.046,-0.029l0.045,-0.03l0.044,-0.032l0.045,-0.034l0.045,-0.036l0.025,-0.023l0.027,-0.024l0.027,-0.027l0.028,-0.028l0.029,-0.031l0.029,-0.033l0.029,-0.034l0.03,-0.037l0.031,-0.038l0.03,-0.04l0.031,-0.041l0.031,-0.044l0.032,-0.044l0.03,-0.045l0.065,-0.098l0.064,-0.102l0.065,-0.105l0.065,-0.109l0.067,-0.112l0.136,-0.229l0.072,-0.117l0.07,-0.114l0.17,-0.27l0.162,-0.262l0.078,-0.128l0.078,-0.128l0.075,-0.127l0.074,-0.126l0.073,-0.125l0.071,-0.124l0.069,-0.124l0.068,-0.124l0.067,-0.123l0.064,-0.123l0.063,-0.122l0.061,-0.123l0.06,-0.123l0.058,-0.123l0.057,-0.124l0.054,-0.124l0.054,-0.125l0.051,-0.125l0.05,-0.127l0.048,-0.127l0.047,-0.129l0.045,-0.13l0.043,-0.131l0.041,-0.133l0.04,-0.135l0.038,-0.137l0.037,-0.139l0.035,-0.143l0.046,-0.195l0.044,-0.197l0.043,-0.198l0.041,-0.197l0.039,-0.197l0.037,-0.198l0.034,-0.197l0.033,-0.197l0.03,-0.196l0.027,-0.197l0.025,-0.197l0.011,-0.096l0.01,-0.098l0.01,-0.098l0.009,-0.097l0.008,-0.098l0.007,-0.097l0.007,-0.097l0.006,-0.097l0.005,-0.097l0.004,-0.102l0.009,-0.175l0.008,-0.178l0.003,-0.082l0.001,-0.079l0.001,-0.076l-0.002,-0.071l-0.003,-0.069l-0.002,-0.027l-0.002,-0.029l-0.003,-0.027l-0.003,-0.025l-0.004,-0.023l-0.004,-0.021l-0.003,-0.019l-0.004,-0.016l-0.004,-0.015l-0.003,-0.011l-0.004,-0.01l-0.002,-0.007l-0.002,-0.004l-0.004,-0.01l-0.089,-0.178l-0.094,-0.185l-0.097,-0.185l-0.098,-0.185l-0.101,-0.185l-0.102,-0.185l-0.104,-0.184l-0.106,-0.185l-0.107,-0.185l-0.108,-0.184l-0.109,-0.184l-0.11,-0.184l-0.222,-0.368l-0.224,-0.366l-0.081,-0.131l-0.083,-0.132l-0.087,-0.133l-0.042,-0.064l-0.044,-0.064l-0.044,-0.064l-0.045,-0.063l-0.045,-0.062l-0.045,-0.061l-0.046,-0.06l-0.046,-0.058l-0.047,-0.056l-0.046,-0.055l-0.047,-0.053l-0.046,-0.051l-0.047,-0.049l-0.046,-0.046l-0.046,-0.044l-0.046,-0.041l-0.045,-0.039l-0.045,-0.037l-0.044,-0.033l-0.043,-0.031l-0.046,-0.03l-0.017,-0.011l-0.02,-0.012l-0.02,-0.011l-0.02,-0.011l-0.02,-0.011l-0.019,-0.009l-0.019,-0.009l-0.018,-0.008l-0.019,-0.008l-0.02,-0.008l-0.054,-0.02l-0.056,-0.02l-0.056,-0.02l-0.058,-0.019l-0.058,-0.018l-0.058,-0.018l-0.059,-0.017l-0.059,-0.017l-0.06,-0.016l-0.061,-0.015l-0.06,-0.015l-0.062,-0.014l-0.062,-0.014l-0.06,-0.012l-0.128,-0.025l-0.128,-0.023l-0.129,-0.02l-0.131,-0.018l-0.132,-0.016l-0.134,-0.014l-0.135,-0.011l-0.136,-0.011l-0.137,-0.008l-0.137,-0.006l-0.139,-0.005l-0.139,-0.003l-0.023,0l-0.022,0.015l-0.076,0.042l-0.08,0.036l-0.083,0.028l-0.084,0.021l-0.086,0.014l-0.087,0.006l-0.088,-0.001l-0.086,-0.01l-0.086,-0.016l-0.084,-0.024l-0.108,-0.036l-0.103,-0.034l-0.05,-0.015l-0.123,0.007l-0.141,0.009l-0.139,0.01l-0.276,0.021l-0.09,0.009l-0.089,0.01l-0.09,0.014l-0.092,0.015l-0.093,0.018l-0.095,0.021l-0.096,0.023l-0.096,0.025l-0.097,0.028l-0.098,0.03l-0.098,0.032l-0.097,0.034l-0.098,0.037l-0.097,0.038l-0.097,0.041l-0.096,0.043l-0.095,0.044l-0.094,0.046l-0.093,0.048l-0.091,0.049l-0.09,0.051l-0.088,0.053l-0.085,0.053l-0.084,0.055l-0.081,0.056l-0.079,0.057l-0.076,0.058l-0.076,0.061l-0.033,0.027l-0.035,0.03l-0.034,0.03l-0.033,0.029l-0.033,0.03l-0.031,0.03l-0.031,0.03l-0.036,0.036l-0.075,0.075l-0.082,0.079l-0.085,0.078l-0.085,0.076l-0.088,0.075l-0.088,0.073l-0.091,0.071l-0.091,0.069l-0.094,0.067l-0.094,0.066l-0.096,0.064l-0.098,0.061l-0.098,0.06l-0.101,0.058l-0.101,0.056l-0.087,0.046l-0.013,0.006l-0.016,0.01l-0.077,0.046l-0.054,0.032l-0.065,0.036l-0.078,0.041l-0.086,0.039l-0.062,0.025l-0.064,0.022l-0.074,0.022l-0.087,0.019l-0.056,0.008l-0.048,0.006l-0.049,0.003l-0.016,0.001l-0.06,0.001l-0.06,-0.003l-0.014,-0.001l-0.073,-0.009l-0.072,-0.013l-0.013,-0.003l-0.084,-0.023l-0.081,-0.03l-0.012,-0.005l-0.059,-0.027l-0.057,-0.03l-0.055,-0.034l-0.011,-0.008l-0.055,-0.039l-0.052,-0.043l-0.049,-0.047l-0.01,-0.009l-0.044,-0.048l-0.041,-0.051l-0.037,-0.053l-0.008,-0.012l-0.045,-0.074l-0.038,-0.078l-0.007,-0.015l-0.026,-0.069l-0.022,-0.07l-0.005,-0.018l-0.014,-0.059l-0.01,-0.06l-0.003,-0.02l-0.006,-0.049l-0.003,-0.049l-0.001,-0.024l0,-0.087l0.008,-0.087l0.015,-0.086l0.023,-0.084l0.03,-0.082l0.037,-0.079l0.043,-0.076l0.051,-0.071l0.056,-0.067l0.062,-0.061l0.066,-0.056l0.072,-0.05l0.076,-0.044l0.079,-0.036l0.082,-0.03l0.084,-0.023l0.086,-0.015l0.087,-0.007l0.087,0l0.04,0.004l0.03,-0.016l0.064,-0.035l0.064,-0.037l0.063,-0.038l0.063,-0.04l0.062,-0.041l0.061,-0.043l0.06,-0.043l0.06,-0.045l0.059,-0.047l0.058,-0.047l0.057,-0.049l0.057,-0.05l0.055,-0.051l0.054,-0.053l0.06,-0.059l0.044,-0.045l0.051,-0.049l0.052,-0.049l0.052,-0.049l0.054,-0.048l0.053,-0.047l0.055,-0.046l0.057,-0.048l0.11,-0.087l0.114,-0.087l0.018,-0.012l-0.035,-0.001l-0.04,-0.001l-0.039,0.001Zm-0.559,2.215l-0.001,-0.026l-0.003,-0.02l0.004,0.046Z"/>
  <path d="M28.275,3.156l0.046,0.003l0.045,0.004l0.013,0.001l0.054,0.008l0.054,0.011l0.012,0.003l0.062,0.016l0.061,0.02l0.011,0.004l0.069,0.029l0.066,0.033l0.01,0.006l0.071,0.043l0.067,0.048l0.008,0.007l0.045,0.038l0.043,0.04l0.04,0.042l0.007,0.008l0.037,0.045l0.034,0.047l0.032,0.048l0.006,0.009l0.04,0.072l0.034,0.074l0.004,0.011l0.025,0.068l0.02,0.07l0.003,0.012l0.014,0.061l0.009,0.062l0.001,0.014l0.005,0.053l0.002,0.052l0.001,0.016l-0.001,0.044l-0.002,0.044l-0.004,0.054l-0.013,0.086l-0.017,0.076l-0.019,0.07l-0.021,0.065l-0.023,0.062l-0.025,0.058l-0.026,0.055l-0.026,0.052l-0.028,0.05l-0.031,0.053l-0.054,0.082l-0.059,0.081l-0.06,0.076l-0.061,0.071l-0.061,0.068l-0.062,0.064l-0.063,0.062l-0.063,0.06l-0.063,0.057l-0.063,0.055l-0.063,0.053l-0.063,0.052l-0.062,0.05l-0.064,0.05l-0.119,0.089l-0.116,0.084l-0.109,0.077l-0.101,0.069l-0.09,0.06l-0.008,0.005l0.164,-0.069l0.342,-0.141l0.344,-0.14l0.105,-0.042l0.106,-0.041l0.106,-0.039l0.106,-0.039l0.107,-0.037l0.106,-0.037l0.107,-0.035l0.107,-0.035l0.107,-0.033l0.107,-0.032l0.107,-0.032l0.108,-0.031l0.213,-0.059l0.214,-0.055l0.213,-0.053l0.213,-0.05l0.213,-0.048l0.212,-0.045l0.211,-0.043l0.21,-0.041l0.209,-0.04l0.193,-0.035l0.012,-0.003l0.011,-0.002l0.025,-0.007l0.039,-0.012l0.104,-0.032l0.072,-0.02l0.082,-0.02l0.088,-0.017l0.059,-0.01l0.058,-0.007l0.061,-0.005l0.066,-0.004l0.071,0l0.075,0.004l0.08,0.009l0.084,0.014l0.088,0.021l0.089,0.028l0.09,0.037l0.09,0.044l0.087,0.052l0.084,0.059l0.071,0.06l0.037,0.037l0.032,0.033l0.029,0.034l0.006,0.007l0.03,0.037l0.027,0.038l0.005,0.007l0.027,0.041l0.024,0.041l0.004,0.008l0.023,0.043l0.02,0.044l0.003,0.008l0.019,0.044l0.015,0.046l0.003,0.008l0.013,0.044l0.012,0.045l0.001,0.009l0.013,0.064l0.008,0.065l0.001,0.017l0.004,0.078l-0.002,0.077l-0.001,0.019l-0.006,0.065l-0.011,0.064l-0.004,0.02l-0.012,0.052l-0.015,0.053l-0.006,0.019l-0.014,0.043l-0.016,0.041l-0.023,0.055l-0.041,0.081l-0.041,0.07l-0.04,0.061l-0.039,0.055l-0.039,0.049l-0.037,0.045l-0.04,0.045l-0.065,0.069l-0.066,0.065l-0.062,0.057l-0.058,0.05l-0.053,0.043l-0.05,0.041l-0.068,0.05l-0.213,0.149l-0.221,0.153l-0.238,0.164l-0.252,0.172l-0.535,0.363l-0.558,0.376l-0.352,0.235l0.047,0.018l0.007,0.003l0.05,0.023l0.049,0.025l0.007,0.004l0.05,0.03l0.049,0.033l0.006,0.004l0.049,0.038l0.046,0.04l0.006,0.005l0.044,0.043l0.041,0.046l0.005,0.006l0.038,0.048l0.035,0.049l0.004,0.007l0.03,0.049l0.028,0.051l0.003,0.007l0.023,0.048l0.02,0.05l0.003,0.008l0.016,0.046l0.014,0.047l0.014,0.051l0.016,0.091l0.008,0.083l0.003,0.082l-0.004,0.098l-0.013,0.101l-0.02,0.099l-0.027,0.094l-0.034,0.088l-0.038,0.082l-0.041,0.076l-0.043,0.068l-0.044,0.062l-0.045,0.056l-0.044,0.05l-0.043,0.045l-0.042,0.041l-0.046,0.04l-0.069,0.058l-0.069,0.051l-0.064,0.045l-0.091,0.06l-0.068,0.044l-0.012,0.008l-0.014,0.011l-0.126,0.097l-0.139,0.105l-0.142,0.104l-0.142,0.103l-0.145,0.103l-0.145,0.101l-0.145,0.101l-0.147,0.1l-0.289,0.194l-0.285,0.19l-0.277,0.182l-0.267,0.174l-0.315,0.206l-0.316,0.204l-0.317,0.203l-0.317,0.202l-0.633,0.401l-0.633,0.398l-0.63,0.397l-0.629,0.398l-0.312,0.199l-0.312,0.2l-0.31,0.2l-0.309,0.202l-0.283,0.186l-0.282,0.186l-0.279,0.189l-0.138,0.094l-0.137,0.094l-0.137,0.095l-0.135,0.096l-0.135,0.096l-0.134,0.097l-0.133,0.098l-0.132,0.098l-0.131,0.099l-0.114,0.087l-0.01,0.055l-0.023,0.081l-0.029,0.08l-0.036,0.077l-0.043,0.073l-0.049,0.07l-0.054,0.065l-0.06,0.06l-0.064,0.055l-0.069,0.05l-0.073,0.043l-0.077,0.037l-0.079,0.03l-0.082,0.024l-0.083,0.016l-0.067,0.011l-0.085,0.01l-0.09,0.006l-0.103,0.002l-0.107,-0.008l-0.083,-0.012l-0.081,-0.017l-0.047,-0.014l-0.044,-0.015l-0.044,-0.016l-0.009,-0.004l-0.051,-0.022l-0.05,-0.026l-0.007,-0.003l-0.058,-0.034l-0.055,-0.037l-0.006,-0.005l-0.06,-0.048l-0.057,-0.052l-0.005,-0.005l-0.058,-0.063l-0.053,-0.068l-0.003,-0.005l-0.034,-0.051l-0.03,-0.052l-0.027,-0.054l-0.003,-0.005l-0.023,-0.055l-0.02,-0.056l-0.017,-0.057l-0.001,-0.006l-0.018,-0.081l-0.011,-0.082l0,-0.006l-0.004,-0.073l0.001,-0.073l0,-0.007l0.006,-0.062l0.009,-0.062l0.001,-0.007l0.011,-0.051l0.013,-0.051l0.003,-0.008l0.019,-0.059l0.023,-0.058l0.007,-0.017l0.026,-0.055l0.029,-0.053l0.033,-0.057l0.058,-0.081l0.053,-0.066l0.049,-0.055l0.047,-0.048l0.045,-0.044l0.047,-0.044l0.083,-0.073l0.087,-0.073l0.088,-0.072l0.089,-0.07l0.175,-0.136l0.141,-0.108l0.144,-0.109l0.143,-0.107l0.144,-0.105l0.145,-0.105l0.145,-0.103l0.145,-0.102l0.145,-0.102l0.145,-0.1l0.146,-0.1l0.29,-0.195l0.291,-0.193l0.291,-0.191l0.316,-0.206l0.316,-0.204l0.317,-0.203l0.317,-0.202l0.098,-0.062l-0.012,0.006l-0.224,0.115l-0.224,0.117l-0.223,0.119l-0.223,0.119l-0.222,0.121l-0.222,0.123l-0.222,0.123l-0.222,0.124l-0.22,0.124l-0.442,0.252l-0.44,0.254l-0.438,0.254l-0.144,0.084l-0.155,0.092l-0.342,0.205l-0.368,0.224l-0.382,0.236l-0.384,0.238l-0.372,0.233l-0.346,0.221l-0.284,0.182l-0.025,0.019l-0.114,0.085l-0.079,0.058l-0.089,0.064l-0.097,0.068l-0.104,0.07l-0.105,0.068l-0.06,0.036l-0.059,0.035l-0.06,0.034l-0.064,0.034l-0.068,0.033l-0.074,0.033l-0.083,0.033l-0.097,0.032l-0.105,0.026l-0.083,0.014l-0.083,0.008l-0.051,0.001l-0.046,0l-0.046,-0.002l-0.011,-0.001l-0.056,-0.005l-0.055,-0.009l-0.01,-0.002l-0.064,-0.014l-0.064,-0.019l-0.009,-0.003l-0.073,-0.027l-0.071,-0.032l-0.008,-0.004l-0.05,-0.028l-0.049,-0.031l-0.048,-0.033l-0.007,-0.005l-0.048,-0.039l-0.045,-0.041l-0.043,-0.044l-0.006,-0.007l-0.04,-0.046l-0.037,-0.049l-0.034,-0.051l-0.005,-0.007l-0.037,-0.065l-0.032,-0.068l-0.004,-0.008l-0.025,-0.064l-0.021,-0.066l-0.002,-0.008l-0.017,-0.075l-0.012,-0.075l-0.001,-0.008l-0.006,-0.08l0,-0.08l0,-0.007l0.007,-0.081l0.013,-0.079l0.002,-0.007l0.018,-0.074l0.024,-0.072l0.002,-0.007l0.027,-0.064l0.03,-0.061l0.004,-0.007l0.03,-0.052l0.033,-0.05l0.004,-0.006l0.031,-0.041l0.032,-0.04l0.034,-0.038l0.037,-0.036l0.038,-0.035l0.039,-0.033l0.015,-0.011l0.04,-0.03l0.042,-0.028l0.047,-0.03l0.07,-0.039l0.057,-0.027l0.045,-0.02l0.039,-0.016l0.111,-0.068l0.15,-0.091l0.143,-0.087l0.065,-0.041l0.066,-0.042l0.213,-0.137l0.186,-0.121l0.312,-0.206l0.254,-0.169l0.228,-0.153l0.233,-0.154l0.129,-0.084l0.14,-0.09l0.155,-0.099l0.174,-0.109l0.196,-0.123l0.224,-0.139l0.294,-0.18l0.296,-0.179l0.297,-0.177l0.297,-0.176l0.298,-0.174l0.298,-0.172l0.298,-0.171l0.299,-0.169l0.298,-0.169l0.3,-0.168l0.596,-0.332l0.596,-0.331l0.595,-0.329l0.593,-0.329l0.591,-0.33l0.294,-0.166l0.293,-0.166l0.292,-0.167l0.292,-0.168l0.29,-0.168l0.289,-0.17l0.287,-0.171l0.287,-0.172l0.285,-0.174l0.283,-0.176l0.282,-0.177l0.174,-0.111l-0.215,0.093l-0.328,0.144l-0.327,0.146l-0.326,0.147l-0.325,0.148l-0.325,0.15l-0.325,0.152l-0.324,0.152l-0.324,0.154l-0.323,0.154l-0.323,0.156l-0.323,0.157l-0.323,0.157l-0.322,0.159l-0.646,0.319l-0.646,0.321l-0.647,0.324l-1.298,0.65l-0.653,0.326l-0.654,0.324l-0.515,0.256l-0.405,0.202l-0.336,0.165l-0.156,0.075l-0.152,0.072l-0.154,0.072l-0.159,0.072l-0.169,0.076l-0.183,0.08l-0.202,0.087l-0.225,0.096l-0.533,0.224l-0.042,0.019l-0.05,0.023l-0.14,0.065l-0.086,0.04l-0.095,0.042l-0.103,0.042l-0.107,0.041l-0.063,0.022l-0.061,0.021l-0.064,0.019l-0.067,0.019l-0.07,0.017l-0.073,0.016l-0.077,0.013l-0.08,0.011l-0.085,0.008l-0.09,0.004l-0.094,-0.001l-0.099,-0.007l-0.104,-0.014l-0.108,-0.023l-0.102,-0.03l-0.066,-0.024l-0.06,-0.025l-0.074,-0.036l-0.082,-0.045l-0.049,-0.033l-0.037,-0.026l-0.036,-0.028l-0.014,-0.011l-0.041,-0.035l-0.039,-0.037l-0.011,-0.012l-0.042,-0.045l-0.04,-0.047l-0.009,-0.012l-0.04,-0.057l-0.037,-0.059l-0.007,-0.012l-0.035,-0.067l-0.03,-0.07l-0.005,-0.013l-0.026,-0.074l-0.019,-0.077l-0.003,-0.013l-0.013,-0.077l-0.007,-0.078l-0.001,-0.013l-0.001,-0.074l0.004,-0.074l0.001,-0.013l0.009,-0.066l0.013,-0.066l0.003,-0.014l0.015,-0.057l0.018,-0.056l0.005,-0.014l0.019,-0.047l0.02,-0.046l0.026,-0.053l0.049,-0.084l0.049,-0.07l0.048,-0.061l0.046,-0.052l0.045,-0.046l0.048,-0.046l0.075,-0.065l0.078,-0.061l0.076,-0.054l0.074,-0.049l0.073,-0.046l0.072,-0.044l0.072,-0.042l0.072,-0.041l0.138,-0.076l0.261,-0.14l0.115,-0.064l0.048,-0.027l0.045,-0.026l0.037,-0.022l0.029,-0.019l0.02,-0.013l0.02,-0.015l0.187,-0.141l0.199,-0.147l0.198,-0.142l0.199,-0.139l0.199,-0.137l0.199,-0.133l0.2,-0.132l0.2,-0.129l0.201,-0.127l0.201,-0.125l0.203,-0.124l0.202,-0.123l0.204,-0.122l0.206,-0.122l0.412,-0.241l0.251,-0.146l0.251,-0.144l0.5,-0.286l0.498,-0.283l0.497,-0.282l0.458,-0.261l0.444,-0.251l0.848,-0.48l0.409,-0.231l0.4,-0.227l0.394,-0.226l0.39,-0.225l0.388,-0.225l0.387,-0.228l0.389,-0.233l0.195,-0.117l0.197,-0.12l0.198,-0.121l0.199,-0.123l0.201,-0.126l0.204,-0.128l0.205,-0.13l0.207,-0.133l-0.001,-0.004l-0.015,-0.083l-0.008,-0.084l-0.002,-0.085l0.007,-0.085l0.013,-0.084l0.02,-0.082l0.028,-0.081l0.034,-0.077l0.04,-0.075l0.047,-0.071l0.052,-0.067l0.058,-0.062l0.063,-0.057l0.068,-0.051l0.071,-0.045l0.076,-0.039l0.078,-0.033l0.024,-0.009l0.013,-0.005l0.024,-0.011l0.031,-0.015l0.038,-0.018l0.041,-0.022l0.1,-0.053l0.227,-0.125l0.124,-0.067l0.126,-0.065l0.069,-0.035l0.07,-0.032l0.073,-0.033l0.077,-0.031l0.085,-0.031l0.096,-0.03l0.101,-0.024l0.076,-0.013l0.074,-0.009l0.085,-0.004l0.052,0.001Z"/>
  <path d="M23.838,21.55l0.175,0.003l0.176,0.006l0.175,0.007l0.175,0.01l0.174,0.011l0.174,0.013l0.174,0.015l0.174,0.017l0.173,0.018l0.173,0.021l0.173,0.021l0.172,0.024l0.172,0.024l0.171,0.027l0.17,0.028l0.171,0.029l0.169,0.03l0.169,0.032l0.169,0.033l0.168,0.034l0.167,0.035l0.167,0.037l0.166,0.037l0.166,0.039l0.164,0.039l0.164,0.041l0.164,0.041l0.162,0.042l0.162,0.043l0.161,0.044l0.16,0.044l0.159,0.045l0.159,0.046l0.158,0.046l0.311,0.094l0.302,0.093l0.101,0.031l0.098,0.028l0.103,0.027l0.107,0.028l0.23,0.057l0.119,0.029l0.124,0.032l0.127,0.034l0.131,0.036l0.133,0.04l0.133,0.043l0.072,0.025l0.069,0.025l0.07,0.027l0.071,0.028l0.071,0.03l0.071,0.031l0.072,0.034l0.068,0.033l0.183,0.092l0.179,0.092l0.178,0.093l0.179,0.094l0.178,0.095l0.178,0.097l0.177,0.097l0.178,0.099l0.176,0.1l0.177,0.101l0.176,0.103l0.175,0.103l0.175,0.105l0.174,0.106l0.174,0.107l0.173,0.109l0.172,0.11l0.172,0.111l0.171,0.112l0.17,0.114l0.169,0.115l0.168,0.116l0.168,0.117l0.166,0.119l0.166,0.12l0.164,0.122l0.164,0.123l0.162,0.124l0.161,0.126l0.16,0.126l0.159,0.129l0.158,0.129l0.156,0.132l0.155,0.132l0.153,0.134l0.153,0.135l0.15,0.137l0.15,0.138l0.148,0.14l0.146,0.141l0.144,0.143l0.143,0.144l0.142,0.146l0.139,0.147l0.138,0.148l0.136,0.15l0.134,0.152l0.132,0.153l0.131,0.155l0.128,0.156l0.126,0.158l0.125,0.16l0.122,0.161l0.12,0.163l0.118,0.164l0.115,0.166l0.114,0.167l0.111,0.17l0.108,0.17l0.106,0.173l0.104,0.174l0.101,0.175l0.099,0.178l0.096,0.179l0.032,0.062l0.031,0.063l0.03,0.063l0.029,0.063l0.027,0.064l0.027,0.063l0.026,0.064l0.026,0.067l0.046,0.125l0.043,0.128l0.041,0.129l0.037,0.129l0.035,0.128l0.032,0.129l0.03,0.128l0.028,0.128l0.026,0.128l0.025,0.127l0.022,0.127l0.021,0.125l0.02,0.125l0.019,0.125l0.035,0.243l0.032,0.239l0.029,0.232l0.029,0.224l0.029,0.215l0.029,0.206l0.014,0.096l0.016,0.098l0.032,0.192l0.031,0.198l0.031,0.2l0.03,0.203l0.029,0.205l0.029,0.206l0.027,0.209l0.026,0.21l0.025,0.212l0.023,0.214l0.022,0.214l0.021,0.216l0.018,0.217l0.017,0.218l0.015,0.218l0.013,0.219l0.011,0.219l0.009,0.22l0.007,0.22l0.004,0.22l0.001,0.22l-0.001,0.22l-0.004,0.219l-0.007,0.22l-0.01,0.216l-0.006,0.111l-0.007,0.109l-0.008,0.108l-0.008,0.109l-0.01,0.108l-0.01,0.108l-0.011,0.108l-0.013,0.107l-0.013,0.107l-0.014,0.107l-0.015,0.106l-0.016,0.107l-0.017,0.105l-0.016,0.096l-0.005,0.03l-0.002,0.021l-0.003,0.023l-0.002,0.026l-0.001,0.027l-0.001,0.029l-0.001,0.032l0,0.03l0.002,0.078l0.003,0.082l0.006,0.089l0.013,0.2l0.006,0.112l0.006,0.118l0.002,0.122l0,0.069l-0.001,0.068l-0.003,0.069l-0.004,0.071l-0.005,0.073l-0.008,0.075l-0.01,0.076l-0.01,0.061l-0.008,0.051l-0.004,0.035l-0.003,0.037l-0.002,0.039l-0.001,0.041l0,0.043l0.001,0.045l0.003,0.047l0.004,0.049l0.005,0.052l0.006,0.053l0.008,0.055l0.008,0.057l0.009,0.057l0.023,0.126l0.024,0.129l0.027,0.137l0.029,0.143l0.027,0.146l0.014,0.079l0.013,0.079l0.012,0.081l0.012,0.082l0.01,0.085l0.009,0.086l0.007,0.089l0.004,0.077l0,0.116l-0.014,0.116l-0.027,0.113l-0.04,0.109l-0.053,0.104l-0.064,0.097l-0.075,0.089l-0.084,0.079l-0.094,0.07l-0.101,0.058l-0.107,0.045l-0.111,0.033l-0.115,0.02l-0.116,0.007l-0.116,-0.007l-0.114,-0.021l-0.112,-0.033l-0.106,-0.047l-0.101,-0.058l-0.093,-0.07l-0.084,-0.08l-0.075,-0.089l-0.064,-0.097l-0.052,-0.104l-0.039,-0.11l-0.027,-0.113l-0.013,-0.115l-0.003,-0.054l-0.003,-0.043l-0.005,-0.046l-0.006,-0.049l-0.007,-0.052l-0.008,-0.054l-0.01,-0.056l-0.01,-0.058l-0.023,-0.127l-0.027,-0.133l-0.028,-0.141l-0.028,-0.15l-0.028,-0.154l-0.013,-0.084l-0.013,-0.084l-0.011,-0.085l-0.01,-0.088l-0.009,-0.09l-0.008,-0.091l-0.005,-0.094l-0.003,-0.096l0,-0.097l0.002,-0.1l0.005,-0.102l0.009,-0.103l0.013,-0.105l0.014,-0.089l0.006,-0.037l0.002,-0.022l0.003,-0.023l0.002,-0.026l0.002,-0.028l0.001,-0.03l0,-0.031l0,-0.031l-0.002,-0.078l-0.003,-0.081l-0.005,-0.089l-0.007,-0.097l-0.007,-0.104l-0.006,-0.111l-0.005,-0.118l-0.003,-0.121l0,-0.069l0.001,-0.067l0.003,-0.07l0.004,-0.071l0.005,-0.072l0.008,-0.075l0.01,-0.076l0.011,-0.068l0.016,-0.095l0.014,-0.087l0.013,-0.087l0.013,-0.087l0.011,-0.089l0.011,-0.089l0.01,-0.091l0.01,-0.09l0.009,-0.092l0.008,-0.092l0.007,-0.092l0.007,-0.093l0.006,-0.094l0.005,-0.092l0.009,-0.192l0.006,-0.192l0.003,-0.194l0.001,-0.195l-0.001,-0.196l-0.004,-0.197l-0.006,-0.199l-0.008,-0.199l-0.01,-0.199l-0.011,-0.2l-0.014,-0.201l-0.016,-0.2l-0.017,-0.2l-0.019,-0.2l-0.021,-0.2l-0.022,-0.199l-0.023,-0.198l-0.024,-0.197l-0.026,-0.197l-0.026,-0.194l-0.028,-0.194l-0.029,-0.192l-0.029,-0.19l-0.03,-0.188l-0.031,-0.19l-0.017,-0.109l-0.018,-0.115l-0.032,-0.226l-0.03,-0.228l-0.029,-0.228l-0.029,-0.227l-0.03,-0.225l-0.032,-0.225l-0.017,-0.108l-0.017,-0.108l-0.018,-0.107l-0.019,-0.106l-0.02,-0.104l-0.021,-0.102l-0.021,-0.1l-0.023,-0.098l-0.024,-0.095l-0.025,-0.093l-0.027,-0.09l-0.027,-0.087l-0.028,-0.084l-0.031,-0.083l-0.014,-0.037l-0.016,-0.038l-0.015,-0.037l-0.016,-0.037l-0.016,-0.035l-0.017,-0.035l-0.017,-0.033l-0.017,-0.033l-0.081,-0.152l-0.084,-0.151l-0.086,-0.15l-0.089,-0.148l-0.09,-0.148l-0.094,-0.146l-0.095,-0.146l-0.098,-0.144l-0.099,-0.144l-0.102,-0.142l-0.105,-0.141l-0.106,-0.14l-0.108,-0.139l-0.111,-0.138l-0.112,-0.137l-0.115,-0.136l-0.116,-0.135l-0.118,-0.134l-0.12,-0.132l-0.123,-0.132l-0.124,-0.131l-0.125,-0.129l-0.128,-0.129l-0.129,-0.127l-0.131,-0.127l-0.133,-0.125l-0.134,-0.124l-0.136,-0.124l-0.137,-0.122l-0.139,-0.121l-0.141,-0.12l-0.142,-0.119l-0.143,-0.118l-0.145,-0.117l-0.146,-0.116l-0.147,-0.115l-0.149,-0.114l-0.15,-0.112l-0.151,-0.112l-0.152,-0.11l-0.154,-0.11l-0.154,-0.109l-0.156,-0.107l-0.157,-0.106l-0.157,-0.106l-0.159,-0.104l-0.16,-0.103l-0.16,-0.103l-0.161,-0.101l-0.162,-0.1l-0.163,-0.099l-0.164,-0.098l-0.164,-0.097l-0.165,-0.096l-0.165,-0.095l-0.167,-0.094l-0.166,-0.093l-0.167,-0.092l-0.168,-0.09l-0.168,-0.09l-0.168,-0.089l-0.169,-0.088l-0.169,-0.087l-0.166,-0.084l-0.038,-0.018l-0.035,-0.016l-0.036,-0.016l-0.038,-0.016l-0.039,-0.016l-0.04,-0.015l-0.042,-0.015l-0.04,-0.014l-0.094,-0.03l-0.095,-0.029l-0.099,-0.028l-0.105,-0.027l-0.108,-0.028l-0.114,-0.028l-0.236,-0.059l-0.124,-0.032l-0.127,-0.034l-0.13,-0.037l-0.126,-0.037l-0.299,-0.093l-0.296,-0.09l-0.148,-0.043l-0.149,-0.043l-0.149,-0.042l-0.15,-0.042l-0.15,-0.04l-0.151,-0.04l-0.151,-0.04l-0.152,-0.038l-0.152,-0.037l-0.152,-0.037l-0.153,-0.035l-0.153,-0.035l-0.153,-0.033l-0.153,-0.033l-0.153,-0.031l-0.154,-0.03l-0.154,-0.029l-0.154,-0.027l-0.154,-0.027l-0.154,-0.025l-0.154,-0.023l-0.154,-0.023l-0.154,-0.021l-0.153,-0.019l-0.154,-0.018l-0.154,-0.016l-0.153,-0.015l-0.154,-0.013l-0.153,-0.012l-0.153,-0.01l-0.153,-0.008l-0.152,-0.007l-0.152,-0.004l-0.152,-0.003l-0.151,-0.001l-0.151,0.001l-0.151,0.002l-0.15,0.005l-0.15,0.006l-0.149,0.009l-0.149,0.01l-0.148,0.013l-0.147,0.015l-0.147,0.016l-0.147,0.019l-0.146,0.021l-0.145,0.024l-0.145,0.025l-0.144,0.028l-0.143,0.03l-0.143,0.032l-0.142,0.035l-0.141,0.037l-0.141,0.039l-0.14,0.042l-0.139,0.045l-0.14,0.047l-0.067,0.024l-0.069,0.025l-0.069,0.026l-0.068,0.026l-0.068,0.027l-0.066,0.027l-0.088,0.037l-0.084,0.038l-0.084,0.039l-0.082,0.041l-0.082,0.042l-0.082,0.044l-0.081,0.046l-0.081,0.047l-0.08,0.048l-0.081,0.05l-0.08,0.051l-0.08,0.053l-0.081,0.053l-0.081,0.055l-0.08,0.057l-0.081,0.056l-0.165,0.12l-0.166,0.122l-0.343,0.254l-0.177,0.13l-0.181,0.131l-0.095,0.067l-0.095,0.066l-0.096,0.066l-0.096,0.064l-0.368,0.245l-0.365,0.247l-0.182,0.123l-0.182,0.125l-0.181,0.125l-0.18,0.126l-0.179,0.127l-0.179,0.128l-0.177,0.128l-0.176,0.13l-0.175,0.13l-0.173,0.132l-0.171,0.132l-0.17,0.134l-0.167,0.135l-0.166,0.136l-0.163,0.137l-0.161,0.138l-0.158,0.14l-0.157,0.142l-0.076,0.069l-0.076,0.072l-0.075,0.071l-0.075,0.072l-0.074,0.072l-0.073,0.073l-0.072,0.073l-0.072,0.073l-0.071,0.073l-0.07,0.074l-0.069,0.075l-0.068,0.074l-0.068,0.075l-0.066,0.076l-0.066,0.075l-0.064,0.077l-0.064,0.076l-0.063,0.077l-0.062,0.077l-0.061,0.078l-0.09,0.117l-0.089,0.117l-0.089,0.119l-0.087,0.119l-0.087,0.119l-0.087,0.121l-0.085,0.121l-0.085,0.122l-0.085,0.123l-0.084,0.123l-0.083,0.124l-0.082,0.123l-0.166,0.252l-0.163,0.253l-0.162,0.255l-0.161,0.256l-0.16,0.259l-0.16,0.259l-0.321,0.524l-0.321,0.525l-0.1,0.164l-0.098,0.163l-0.097,0.162l-0.096,0.163l-0.095,0.163l-0.094,0.164l-0.092,0.163l-0.091,0.164l-0.09,0.164l-0.087,0.164l-0.086,0.164l-0.085,0.165l-0.082,0.165l-0.08,0.165l-0.079,0.165l-0.076,0.166l-0.074,0.165l-0.072,0.166l-0.069,0.167l-0.067,0.166l-0.064,0.167l-0.062,0.167l-0.059,0.168l-0.057,0.169l-0.027,0.082l-0.026,0.084l-0.026,0.085l-0.024,0.084l-0.025,0.084l-0.023,0.084l-0.023,0.085l-0.022,0.084l-0.021,0.085l-0.02,0.085l-0.02,0.085l-0.018,0.085l-0.018,0.085l-0.017,0.085l-0.017,0.085l-0.015,0.083l-0.007,0.043l-0.006,0.042l-0.005,0.043l-0.005,0.043l-0.004,0.045l-0.004,0.046l-0.003,0.047l-0.002,0.045l-0.003,0.103l-0.001,0.104l0,0.108l0.002,0.111l0.006,0.24l0.004,0.124l0.002,0.13l0.002,0.133l-0.001,0.138l-0.003,0.139l-0.003,0.075l-0.003,0.073l-0.005,0.079l-0.006,0.081l-0.015,0.152l-0.017,0.153l-0.02,0.15l-0.022,0.149l-0.024,0.146l-0.025,0.144l-0.026,0.143l-0.053,0.277l-0.053,0.27l-0.05,0.264l-0.023,0.127l-0.022,0.125l-0.02,0.123l-0.017,0.121l-0.016,0.119l-0.013,0.116l-0.011,0.116l-0.004,0.053l-0.003,0.055l-0.003,0.055l-0.002,0.054l-0.001,0.053l0,0.052l0,0.052l0.001,0.051l0.002,0.05l0.003,0.05l0.004,0.049l0.004,0.049l0.005,0.048l0.006,0.047l0.007,0.047l0.008,0.046l0.009,0.046l0.01,0.045l0.011,0.045l0.011,0.044l0.013,0.045l0.017,0.055l0.028,0.113l0.014,0.115l0.001,0.116l-0.012,0.116l-0.026,0.113l-0.038,0.11l-0.052,0.104l-0.063,0.098l-0.073,0.09l-0.084,0.08l-0.093,0.071l-0.1,0.059l-0.106,0.047l-0.111,0.034l-0.115,0.022l-0.116,0.008l-0.116,-0.006l-0.115,-0.019l-0.111,-0.032l-0.108,-0.046l-0.101,-0.057l-0.094,-0.068l-0.085,-0.079l-0.076,-0.089l-0.065,-0.096l-0.053,-0.104l-0.041,-0.108l-0.023,-0.077l-0.025,-0.088l-0.023,-0.088l-0.021,-0.087l-0.019,-0.087l-0.017,-0.087l-0.014,-0.087l-0.013,-0.086l-0.012,-0.086l-0.009,-0.086l-0.008,-0.085l-0.006,-0.085l-0.005,-0.084l-0.003,-0.084l-0.002,-0.083l0,-0.082l0,-0.082l0.002,-0.082l0.003,-0.081l0.004,-0.08l0.005,-0.08l0.006,-0.082l0.014,-0.154l0.018,-0.154l0.02,-0.152l0.022,-0.15l0.024,-0.148l0.025,-0.145l0.026,-0.144l0.053,-0.278l0.053,-0.271l0.05,-0.263l0.023,-0.126l0.022,-0.125l0.02,-0.122l0.017,-0.12l0.016,-0.117l0.013,-0.114l0.011,-0.114l0.003,-0.051l0.004,-0.054l0.002,-0.048l0.002,-0.046l0.002,-0.105l0.001,-0.105l-0.002,-0.11l-0.002,-0.114l-0.003,-0.12l-0.006,-0.248l-0.003,-0.133l0,-0.135l0.001,-0.14l0.005,-0.141l0.003,-0.076l0.005,-0.075l0.006,-0.075l0.007,-0.077l0.008,-0.077l0.01,-0.079l0.012,-0.079l0.013,-0.077l0.019,-0.107l0.02,-0.105l0.021,-0.104l0.022,-0.103l0.022,-0.103l0.024,-0.103l0.025,-0.102l0.025,-0.102l0.026,-0.102l0.028,-0.101l0.028,-0.101l0.028,-0.101l0.03,-0.1l0.03,-0.1l0.032,-0.099l0.032,-0.101l0.066,-0.195l0.069,-0.196l0.072,-0.194l0.074,-0.193l0.077,-0.192l0.079,-0.19l0.082,-0.189l0.084,-0.187l0.085,-0.187l0.088,-0.185l0.089,-0.183l0.092,-0.183l0.093,-0.181l0.094,-0.18l0.096,-0.179l0.097,-0.178l0.098,-0.177l0.099,-0.176l0.1,-0.175l0.101,-0.173l0.102,-0.173l0.103,-0.171l0.103,-0.171l0.102,-0.168l0.322,-0.526l0.322,-0.527l0.164,-0.265l0.164,-0.266l0.167,-0.265l0.169,-0.266l0.171,-0.265l0.174,-0.264l0.088,-0.133l0.089,-0.133l0.09,-0.132l0.091,-0.131l0.092,-0.132l0.093,-0.131l0.093,-0.131l0.095,-0.131l0.096,-0.13l0.097,-0.13l0.098,-0.129l0.1,-0.13l0.073,-0.093l0.074,-0.093l0.076,-0.092l0.076,-0.091l0.077,-0.09l0.077,-0.09l0.079,-0.089l0.079,-0.088l0.08,-0.087l0.081,-0.087l0.081,-0.086l0.082,-0.085l0.083,-0.085l0.083,-0.084l0.084,-0.083l0.085,-0.083l0.085,-0.082l0.086,-0.081l0.086,-0.081l0.088,-0.081l0.174,-0.157l0.177,-0.157l0.179,-0.153l0.18,-0.152l0.182,-0.149l0.183,-0.148l0.185,-0.145l0.185,-0.143l0.186,-0.142l0.187,-0.14l0.188,-0.138l0.188,-0.136l0.188,-0.135l0.189,-0.133l0.189,-0.132l0.188,-0.13l0.188,-0.13l0.189,-0.128l0.373,-0.251l0.369,-0.246l0.084,-0.057l0.082,-0.056l0.083,-0.057l0.081,-0.058l0.167,-0.121l0.167,-0.123l0.343,-0.254l0.177,-0.13l0.181,-0.13l0.093,-0.066l0.095,-0.065l0.095,-0.066l0.098,-0.065l0.099,-0.065l0.101,-0.064l0.102,-0.063l0.105,-0.063l0.107,-0.062l0.109,-0.061l0.111,-0.06l0.113,-0.059l0.116,-0.057l0.118,-0.056l0.12,-0.054l0.12,-0.051l0.088,-0.035l0.086,-0.034l0.085,-0.033l0.086,-0.032l0.086,-0.031l0.088,-0.032l0.17,-0.057l0.173,-0.056l0.174,-0.052l0.174,-0.048l0.174,-0.046l0.175,-0.043l0.175,-0.039l0.175,-0.037l0.176,-0.034l0.175,-0.031l0.176,-0.028l0.176,-0.025l0.176,-0.023l0.177,-0.02l0.176,-0.018l0.176,-0.015l0.177,-0.012l0.176,-0.01l0.176,-0.008l0.176,-0.005l0.176,-0.003l0.176,-0.001l0.176,0.001Z"/>
  <path d="M25.84,44.574l0.702,0.002l0.703,0.003l0.702,0.004l0.703,0.006l0.703,0.008l0.703,0.011l0.702,0.013l0.472,0.008l0.471,0.009l0.944,0.016l0.473,0.008l0.473,0.01l0.474,0.01l0.475,0.012l0.475,0.014l0.476,0.017l0.476,0.019l0.239,0.011l0.239,0.011l0.239,0.013l0.239,0.013l0.239,0.015l0.24,0.015l0.24,0.017l0.24,0.017l0.24,0.019l0.24,0.02l0.371,0.033l0.37,0.033l0.738,0.068l0.735,0.069l0.747,0.069l0.118,0.014l0.192,0.025l0.117,0.016l0.124,0.019l0.13,0.02l0.132,0.022l0.131,0.023l0.129,0.025l0.122,0.026l0.067,0.017l0.066,0.018l0.072,0.022l0.086,0.031l0.056,0.026l0.081,0.041l0.008,0.004l0.078,0.049l0.007,0.005l0.054,0.04l0.051,0.044l0.006,0.004l0.072,0.074l0.065,0.082l0.004,0.004l0.057,0.09l0.048,0.096l0.037,0.1l0.001,0.004l0.027,0.104l0.015,0.106l0.003,0.107l-0.007,0.107l-0.001,0.004l-0.018,0.102l-0.029,0.101l-0.04,0.096l-0.049,0.092l-0.002,0.004l-0.056,0.083l-0.064,0.077l-0.071,0.07l-0.005,0.004l-0.075,0.061l-0.081,0.053l-0.006,0.004l-0.055,0.03l-0.057,0.027l-0.009,0.004l-0.106,0.039l-0.108,0.026l-0.112,0.015l-0.112,0.001l-0.111,-0.01l-0.11,-0.024l-0.107,-0.035l-0.101,-0.047l-0.05,-0.03l-0.035,-0.007l-0.103,-0.018l-0.111,-0.018l-0.112,-0.018l-0.111,-0.016l-0.101,-0.014l-0.167,-0.022l-0.08,-0.009l-0.726,-0.067l-0.736,-0.069l-0.733,-0.068l-0.366,-0.033l-0.365,-0.032l-0.23,-0.019l-0.231,-0.018l-0.23,-0.017l-0.231,-0.016l-0.231,-0.015l-0.231,-0.014l-0.232,-0.013l-0.231,-0.012l-0.232,-0.011l-0.231,-0.011l-0.465,-0.019l-0.465,-0.016l-0.467,-0.014l-0.467,-0.012l-0.468,-0.01l-0.469,-0.009l-0.47,-0.009l-0.943,-0.016l-0.473,-0.008l-0.473,-0.009l-0.698,-0.012l-0.696,-0.011l-0.697,-0.008l-0.698,-0.006l-0.698,-0.004l-0.698,-0.003l-0.698,-0.002l-0.699,0l-0.699,0.001l-0.7,0.001l-1.4,0.004l-1.401,0.003l-1.401,0.003l-1.318,0.001l-0.657,0.002l-0.657,0.003l-0.655,0.004l-0.655,0.007l-0.327,0.005l-0.327,0.005l-0.326,0.006l-0.326,0.008l-0.326,0.008l-0.326,0.009l-0.326,0.01l-0.325,0.011l-0.325,0.013l-0.325,0.014l-0.324,0.015l-0.325,0.017l-0.324,0.018l-0.324,0.019l-0.323,0.021l-0.324,0.023l-0.323,0.025l-0.323,0.026l-0.323,0.029l-0.325,0.03l-0.112,0.004l-0.112,-0.008l-0.11,-0.021l-0.107,-0.033l-0.103,-0.045l-0.097,-0.056l-0.09,-0.067l-0.083,-0.076l-0.073,-0.085l-0.063,-0.093l-0.052,-0.099l-0.041,-0.104l-0.029,-0.109l-0.017,-0.111l-0.004,-0.112l0.008,-0.111l0.021,-0.111l0.033,-0.107l0.045,-0.103l0.056,-0.097l0.067,-0.09l0.076,-0.082l0.085,-0.073l0.093,-0.063l0.099,-0.053l0.104,-0.041l0.109,-0.029l0.111,-0.016l0.331,-0.031l0.334,-0.03l0.335,-0.027l0.334,-0.025l0.334,-0.024l0.333,-0.022l0.334,-0.02l0.333,-0.019l0.334,-0.017l0.333,-0.015l0.333,-0.014l0.333,-0.013l0.332,-0.012l0.333,-0.01l0.332,-0.01l0.332,-0.008l0.332,-0.007l0.332,-0.006l0.332,-0.006l0.332,-0.004l0.662,-0.008l0.662,-0.004l0.661,-0.003l0.661,-0.002l1.318,-0.001l1.399,-0.003l1.4,-0.003l1.402,-0.004l0.701,-0.001l0.702,-0.001l0.701,0Zm16.039,1.033l-0.014,0.013l0.071,-0.047l-0.057,0.034Zm0.131,-0.077l-0.037,0.022l0.086,-0.043l-0.049,0.021Z"/>
  <path d="M42.086,37.591l0.073,0.007l0.077,0.012l0.083,0.018l0.051,0.014l0.092,0.032l0.011,0.004l0.061,0.027l0.058,0.03l0.01,0.005l0.061,0.037l0.058,0.042l0.008,0.006l0.058,0.047l0.054,0.052l0.007,0.007l0.05,0.056l0.045,0.058l0.006,0.008l0.039,0.059l0.035,0.062l0.004,0.009l0.028,0.058l0.024,0.06l0.004,0.01l0.033,0.109l0.002,0.01l0.019,0.099l0.007,0.053l0.004,0.09l-0.001,0.079l-0.007,0.08l-0.016,0.101l-0.022,0.091l-0.021,0.073l-0.021,0.063l-0.03,0.078l-0.019,0.051l0,0l-0.001,0.004l-0.014,0.044l-0.022,0.062l-0.023,0.061l-0.024,0.058l-0.026,0.057l-0.026,0.054l-0.027,0.053l-0.028,0.051l-0.028,0.05l-0.031,0.052l-0.056,0.087l-0.058,0.086l-0.059,0.081l-0.059,0.076l-0.057,0.071l-0.057,0.068l-0.055,0.065l-0.098,0.113l-0.093,0.105l-0.131,0.15l-0.135,0.152l-0.136,0.15l-0.137,0.149l-0.06,0.065l0.078,0.011l0.088,0.019l0.051,0.016l0.091,0.033l0.009,0.003l0.098,0.048l0.008,0.004l0.052,0.031l0.05,0.034l0.007,0.005l0.052,0.039l0.048,0.043l0.007,0.006l0.048,0.048l0.044,0.052l0.005,0.006l0.042,0.055l0.037,0.057l0.004,0.007l0.033,0.059l0.029,0.06l0.003,0.008l0.023,0.058l0.02,0.06l0.002,0.008l0.014,0.055l0.012,0.057l0.001,0.009l0.012,0.101l0.001,0.01l0.002,0.09l-0.001,0.05l-0.009,0.084l-0.015,0.088l-0.017,0.066l-0.028,0.088l-0.022,0.059l-0.038,0.086l-0.039,0.075l-0.039,0.067l-0.039,0.061l-0.039,0.058l-0.039,0.055l-0.04,0.053l-0.041,0.052l-0.041,0.051l-0.043,0.053l-0.084,0.096l-0.088,0.098l-0.09,0.096l-0.092,0.096l-0.091,0.093l-0.092,0.091l-0.09,0.089l-0.089,0.085l-0.163,0.156l-0.141,0.132l-0.108,0.101l-0.065,0.062l-0.135,0.131l-0.143,0.136l-0.143,0.135l-0.144,0.134l-0.145,0.134l-0.146,0.133l-0.147,0.132l-0.148,0.131l-0.149,0.13l-0.15,0.129l-0.15,0.128l-0.152,0.128l-0.153,0.126l-0.153,0.125l-0.155,0.125l-0.152,0.12l-0.069,0.056l-0.07,0.056l-0.077,0.061l-0.082,0.063l-0.048,0.036l-0.05,0.035l-0.052,0.035l-0.056,0.036l-0.061,0.036l-0.065,0.036l-0.07,0.035l-0.076,0.033l-0.083,0.032l-0.088,0.028l-0.094,0.024l-0.101,0.018l-0.105,0.012l-0.109,0.004l-0.111,-0.005l-0.111,-0.013l-0.11,-0.022l-0.108,-0.03l-0.103,-0.038l-0.098,-0.043l-0.094,-0.05l-0.088,-0.053l-0.082,-0.057l-0.06,-0.046l-0.084,-0.073l-0.076,-0.083l-0.067,-0.09l-0.056,-0.097l-0.044,-0.103l-0.022,-0.073l-0.075,0.047l-0.158,0.1l-0.171,0.11l-0.034,0.02l-0.097,0.052l-0.103,0.04l-0.106,0.029l-0.109,0.017l-0.11,0.005l-0.11,-0.007l-0.108,-0.019l-0.106,-0.031l-0.101,-0.042l-0.097,-0.053l-0.09,-0.064l-0.082,-0.073l-0.074,-0.081l-0.064,-0.09l-0.055,-0.095l0,-0.001l-0.045,-0.104l-0.032,-0.109l-0.02,-0.112l-0.007,-0.113l0.006,-0.114l0.018,-0.112l0.032,-0.109l0.043,-0.105l0.055,-0.099l0.066,-0.093l0.076,-0.084l0.002,-0.002l0.073,-0.066l0.025,-0.02l0.107,-0.08l0.127,-0.093l0.05,-0.038l0.036,-0.027l0.17,-0.136l0.173,-0.139l0.662,-0.537l0.329,-0.269l0.327,-0.269l0.298,-0.248l0.296,-0.249l0.293,-0.25l0.292,-0.252l0.144,-0.125l0.143,-0.127l0.143,-0.127l0.143,-0.127l0.141,-0.128l0.141,-0.129l0.14,-0.129l0.139,-0.129l0.138,-0.13l0.138,-0.131l0.05,-0.048l-0.076,0.043l-0.18,0.102l-0.363,0.209l-0.362,0.211l-0.363,0.214l-0.363,0.215l-0.73,0.433l-0.367,0.217l-0.369,0.216l-0.37,0.215l-0.187,0.107l-0.19,0.108l-0.186,0.103l-0.258,0.141l-0.309,0.167l-0.336,0.18l-0.34,0.182l-0.322,0.17l-0.28,0.148l-0.213,0.111l-0.208,0.108l-0.21,0.109l-0.112,0.057l-0.114,0.056l-0.117,0.056l-0.125,0.057l-0.083,0.036l-0.096,0.037l-0.059,0.022l-0.06,0.02l-0.064,0.02l-0.072,0.02l-0.083,0.019l-0.102,0.017l-0.071,0.006l-0.097,0.003l-0.012,0l-0.092,-0.006l-0.01,-0.001l-0.062,-0.009l-0.061,-0.012l-0.009,-0.003l-0.082,-0.023l-0.081,-0.031l-0.007,-0.003l-0.071,-0.033l-0.068,-0.039l-0.064,-0.044l-0.006,-0.005l-0.077,-0.063l-0.07,-0.071l-0.062,-0.077l-0.004,-0.005l-0.059,-0.09l-0.049,-0.096l-0.038,-0.1l-0.002,-0.007l-0.025,-0.094l-0.016,-0.095l-0.007,-0.096l0,-0.008l0.004,-0.112l0.017,-0.111l0.001,-0.009l0.02,-0.08l0.027,-0.077l0.019,-0.05l0.043,-0.089l0.035,-0.066l0.037,-0.063l0.037,-0.061l0.039,-0.058l0.039,-0.056l0.04,-0.055l0.041,-0.053l0.042,-0.052l0.043,-0.052l0.043,-0.05l0.046,-0.053l0.088,-0.095l0.092,-0.097l0.095,-0.095l0.097,-0.093l0.099,-0.092l0.1,-0.091l0.101,-0.09l0.102,-0.088l0.102,-0.086l0.102,-0.085l0.1,-0.082l0.101,-0.082l0.192,-0.153l0.182,-0.142l0.167,-0.128l0.269,-0.206l0.09,-0.07l0.026,-0.02l0.019,-0.016l0.33,-0.282l0.338,-0.286l0.676,-0.57l0.336,-0.285l0.335,-0.285l0.332,-0.286l0.164,-0.143l0.163,-0.144l0.163,-0.144l0.161,-0.144l0.161,-0.145l0.158,-0.146l0.158,-0.146l0.156,-0.147l0.154,-0.147l0.153,-0.148l0.151,-0.149l0.149,-0.15l0.147,-0.15l0.054,-0.057l-0.318,0.188l-0.318,0.189l-0.255,0.154l-0.222,0.136l-0.221,0.138l-0.25,0.159l-0.704,0.45l-0.468,0.301l-0.468,0.301l-0.467,0.303l-0.466,0.303l-0.466,0.305l-0.466,0.305l-0.925,0.607l-0.014,0.01l-0.026,0.018l-0.1,0.075l-0.138,0.105l-0.169,0.13l-0.193,0.151l-0.21,0.165l-0.222,0.176l-0.227,0.181l-0.228,0.183l-0.033,0.027l-0.032,0.029l-0.329,0.299l-0.147,0.132l-0.131,0.115l-0.111,0.096l-0.053,0.045l-0.047,0.038l-0.098,0.077l-0.118,0.091l-0.07,0.051l-0.048,0.032l-0.098,0.058l-0.009,0.004l-0.081,0.038l-0.085,0.03l-0.088,0.023l-0.002,0l-0.108,0.017l-0.11,0.005l-0.11,-0.008l-0.108,-0.019l-0.105,-0.031l-0.101,-0.043l-0.096,-0.053l-0.09,-0.063l-0.082,-0.073l0,-0.001l-0.077,-0.085l-0.066,-0.093l-0.055,-0.099l-0.043,-0.106l-0.031,-0.109l-0.019,-0.113l-0.005,-0.114l0.007,-0.113l0.021,-0.112l0.032,-0.109l0.001,-0.002l0.032,-0.078l0.039,-0.075l0.045,-0.071l0.002,-0.003l0.035,-0.048l0.038,-0.046l0.03,-0.034l0.065,-0.065l0.061,-0.058l0.064,-0.059l0.072,-0.063l0.156,-0.135l0.183,-0.153l0.202,-0.167l0.218,-0.178l0.145,-0.118l0.281,-0.257l0.357,-0.326l0.33,-0.298l0.147,-0.132l0.13,-0.116l0.112,-0.096l0.054,-0.045l0.046,-0.037l0.484,-0.38l0.478,-0.373l0.235,-0.186l0.234,-0.186l0.231,-0.186l0.23,-0.188l0.386,-0.32l0.385,-0.321l0.383,-0.322l0.38,-0.323l0.379,-0.325l0.187,-0.163l0.187,-0.163l0.187,-0.164l0.186,-0.164l0.185,-0.165l0.073,-0.066l-0.251,0.188l-0.279,0.211l-0.283,0.216l-0.287,0.222l-0.291,0.227l-0.294,0.23l-0.297,0.235l-0.299,0.237l-0.605,0.481l-0.61,0.486l-0.611,0.488l-0.609,0.483l-0.304,0.239l-0.301,0.237l-0.3,0.233l-0.298,0.23l-0.295,0.226l-0.292,0.221l-0.289,0.216l-0.285,0.211l-0.28,0.203l-0.14,0.1l-0.138,0.098l-0.137,0.096l-0.136,0.095l-0.134,0.092l-0.131,0.088l-0.09,0.062l-0.09,0.062l-0.188,0.131l-0.398,0.28l-0.209,0.146l-0.108,0.074l-0.109,0.075l-0.111,0.074l-0.113,0.075l-0.115,0.074l-0.116,0.073l-0.118,0.073l-0.119,0.072l-0.122,0.07l-0.123,0.069l-0.125,0.068l-0.127,0.066l-0.129,0.063l-0.132,0.062l-0.13,0.057l-0.07,0.03l-0.068,0.027l-0.068,0.027l-0.069,0.026l-0.07,0.025l-0.07,0.024l-0.071,0.023l-0.071,0.023l-0.072,0.021l-0.073,0.02l-0.073,0.019l-0.074,0.018l-0.074,0.016l-0.095,0.02l-0.043,0.006l-0.068,0.007l-0.068,0.003l-0.01,0l-0.106,-0.005l-0.104,-0.016l-0.008,-0.002l-0.105,-0.028l-0.101,-0.039l-0.096,-0.05l-0.006,-0.003l-0.09,-0.06l-0.083,-0.069l-0.075,-0.078l-0.067,-0.086l-0.003,-0.005l-0.054,-0.087l-0.045,-0.093l-0.035,-0.097l-0.025,-0.1l-0.001,-0.007l-0.014,-0.096l-0.005,-0.098l0.005,-0.098l0.001,-0.007l0.014,-0.094l0.023,-0.091l0.002,-0.009l0.02,-0.058l0.023,-0.057l0.021,-0.049l0.046,-0.084l0.058,-0.089l0.055,-0.072l0.048,-0.058l0.045,-0.05l0.043,-0.047l0.072,-0.076l0.06,-0.061l0.042,-0.043l0.163,-0.171l0.137,-0.142l0.119,-0.119l0.109,-0.104l0.106,-0.098l0.113,-0.104l0.134,-0.123l0.17,-0.159l0.322,-0.301l0.256,-0.237l0.21,-0.194l0.188,-0.172l0.395,-0.358l0.254,-0.23l0.322,-0.294l1.5,-1.371l0.429,-0.392l-0.087,0.066l-0.334,0.253l-0.337,0.258l-0.338,0.26l-0.339,0.262l-0.34,0.264l-0.339,0.265l-0.68,0.533l-0.675,0.531l-1.323,1.043l-0.641,0.504l-0.315,0.246l-0.309,0.242l-0.304,0.236l-0.299,0.23l-0.293,0.224l-0.125,0.095l-0.076,0.064l-0.292,0.242l-0.292,0.243l-0.295,0.244l-0.297,0.244l-0.301,0.244l-0.16,0.128l-0.162,0.125l-0.16,0.123l-0.16,0.121l-0.315,0.236l-0.305,0.228l-0.038,0.03l-0.059,0.047l-0.073,0.059l-0.08,0.061l-0.047,0.036l-0.052,0.037l-0.069,0.045l-0.05,0.027l-0.098,0.048l-0.007,0.003l-0.068,0.026l-0.069,0.021l-0.006,0.001l-0.1,0.021l-0.101,0.01l-0.102,0l-0.004,0l-0.112,-0.012l-0.11,-0.025l-0.107,-0.037l-0.101,-0.049l-0.096,-0.059l-0.088,-0.071l-0.002,-0.002l-0.076,-0.075l-0.068,-0.083l-0.058,-0.09l-0.048,-0.096l-0.038,-0.1l-0.027,-0.104l-0.015,-0.106l-0.001,-0.004l-0.004,-0.09l0.004,-0.091l0.012,-0.089l0.02,-0.088l0.002,-0.006l0.025,-0.079l0.032,-0.077l0.004,-0.008l0.042,-0.08l0.017,-0.029l0.045,-0.071l0.042,-0.062l0.044,-0.06l0.044,-0.058l0.046,-0.057l0.046,-0.056l0.047,-0.054l0.048,-0.054l0.049,-0.052l0.05,-0.052l0.05,-0.05l0.051,-0.05l0.052,-0.049l0.054,-0.051l0.104,-0.092l0.108,-0.093l0.11,-0.091l0.112,-0.089l0.114,-0.087l0.114,-0.086l0.115,-0.084l0.116,-0.083l0.116,-0.081l0.116,-0.08l0.116,-0.079l0.227,-0.152l0.222,-0.147l0.213,-0.14l0.201,-0.133l0.187,-0.126l0.084,-0.058l0.079,-0.056l0.074,-0.053l0.07,-0.052l0.122,-0.093l0.184,-0.152l0.297,-0.245l0.298,-0.241l0.292,-0.237l0.297,-0.241l0.304,-0.249l0.31,-0.253l0.638,-0.525l0.656,-0.544l0.67,-0.559l0.681,-0.571l0.687,-0.58l0.689,-0.585l0.688,-0.586l0.683,-0.585l0.672,-0.581l0.323,-0.28l-0.067,0.046l-0.17,0.117l-0.171,0.118l-0.171,0.12l-0.348,0.246l-0.352,0.251l-0.355,0.257l-0.359,0.262l-0.361,0.267l-0.364,0.271l-0.365,0.274l-0.367,0.278l-0.368,0.28l-0.368,0.282l-0.369,0.283l-0.368,0.284l-0.368,0.285l-0.731,0.569l-1.435,1.12l-0.697,0.543l-0.343,0.265l-0.337,0.261l-0.332,0.256l-0.327,0.25l-0.321,0.244l-0.315,0.239l-0.163,0.121l-0.276,0.203l-0.354,0.261l-0.399,0.291l-0.407,0.296l-0.38,0.274l-0.17,0.122l-0.151,0.106l-0.13,0.091l-0.096,0.065l-0.014,0.009l-0.002,0.002l-0.028,0.022l-0.035,0.028l-0.046,0.039l-0.115,0.099l-0.074,0.061l-0.079,0.061l-0.05,0.037l-0.05,0.034l-0.055,0.036l-0.059,0.035l-0.064,0.035l-0.069,0.035l-0.076,0.033l-0.082,0.03l-0.089,0.027l-0.095,0.023l-0.102,0.017l-0.108,0.009l-0.111,0l-0.115,-0.009l-0.114,-0.019l-0.072,-0.018l-0.086,-0.026l-0.083,-0.033l-0.008,-0.004l-0.083,-0.043l-0.078,-0.049l-0.073,-0.057l-0.003,-0.003l-0.056,-0.052l-0.052,-0.056l-0.048,-0.06l-0.002,-0.002l-0.046,-0.068l-0.04,-0.072l-0.034,-0.075l-0.001,-0.002l-0.027,-0.074l-0.02,-0.075l-0.015,-0.076l-0.001,-0.004l-0.01,-0.094l-0.001,-0.094l0.008,-0.095l0.001,-0.007l0.014,-0.083l0.021,-0.081l0.029,-0.08l0.003,-0.008l0.031,-0.07l0.037,-0.067l0.005,-0.009l0.053,-0.08l0.025,-0.035l0.047,-0.055l0.05,-0.054l0.022,-0.023l0.128,-0.158l0.085,-0.104l0.05,-0.058l0.049,-0.056l0.073,-0.081l0.072,-0.078l0.138,-0.145l0.133,-0.14l0.129,-0.136l0.046,-0.048l-0.026,-0.005l-0.019,-0.006l-0.095,-0.03l-0.019,-0.007l-0.103,-0.046l-0.014,-0.007l-0.067,-0.038l-0.065,-0.044l-0.011,-0.008l-0.075,-0.06l-0.069,-0.068l-0.008,-0.008l-0.072,-0.088l-0.062,-0.095l-0.005,-0.009l-0.037,-0.072l-0.032,-0.074l-0.025,-0.077l-0.003,-0.01l-0.018,-0.074l-0.012,-0.075l-0.007,-0.076l0,-0.011l0,-0.098l0.009,-0.098l0.002,-0.011l0.015,-0.077l0.02,-0.077l0.004,-0.011l0.021,-0.058l0.023,-0.057l0.006,-0.012l0.044,-0.085l0.026,-0.045l0.046,-0.068l0.049,-0.063l0.066,-0.075l-0.078,0.06l-0.101,0.077l-0.102,0.076l-0.102,0.076l-0.102,0.074l-0.104,0.075l-0.105,0.074l-0.106,0.073l-0.107,0.072l-0.109,0.072l-0.125,0.082l-0.029,0.017l-0.072,0.038l-0.076,0.032l-0.077,0.027l-0.004,0.001l-0.103,0.024l-0.105,0.013l-0.106,0.002l-0.106,-0.01l-0.104,-0.02l-0.101,-0.032l-0.098,-0.042l-0.092,-0.052l-0.087,-0.061l-0.079,-0.07l-0.071,-0.079l-0.001,0l-0.061,-0.083l-0.052,-0.089l-0.043,-0.094l-0.033,-0.098l-0.023,-0.1l-0.012,-0.103l-0.002,-0.103l0.009,-0.102l0.02,-0.102l0,-0.001l0.032,-0.105l0.043,-0.1l0.054,-0.095l0.003,-0.005l0.041,-0.06l0.046,-0.056l0.032,-0.037l0.052,-0.054l0.073,-0.071l0.066,-0.061l0.072,-0.064l0.066,-0.056l0.11,-0.092l0.179,-0.153l0.139,-0.119l0.109,-0.095l0.093,-0.083l0.094,-0.084l0.108,-0.098l0.309,-0.281l0.207,-0.189l0.232,-0.214l0.256,-0.236l0.274,-0.256l0.593,-0.554l0.625,-0.584l0.626,-0.584l0.305,-0.283l0.295,-0.272l0.28,-0.258l0.263,-0.24l0.243,-0.218l0.218,-0.193l0.482,-0.421l0.481,-0.418l0.481,-0.417l0.481,-0.415l0.96,-0.83l0.478,-0.415l0.477,-0.415l0.475,-0.416l0.472,-0.418l0.235,-0.209l0.235,-0.21l0.233,-0.21l0.233,-0.211l0.224,-0.204l-0.118,0.074l-0.241,0.154l-0.241,0.155l-0.241,0.155l-0.24,0.157l-0.239,0.157l-0.24,0.158l-0.239,0.159l-0.238,0.16l-0.238,0.161l-0.238,0.161l-0.237,0.162l-0.475,0.326l-0.473,0.329l-0.471,0.33l-0.471,0.333l-0.47,0.334l-0.469,0.336l-0.468,0.337l-0.468,0.338l-0.461,0.334l-0.061,0.046l-0.096,0.074l-0.28,0.22l-0.353,0.278l-0.194,0.151l-0.199,0.153l-0.2,0.152l-0.195,0.146l-0.098,0.071l-0.094,0.068l-0.092,0.066l-0.09,0.062l-0.087,0.06l-0.086,0.056l-0.085,0.053l-0.086,0.051l-0.085,0.046l-0.056,0.027l-0.057,0.026l-0.067,0.027l-0.084,0.027l-0.054,0.013l-0.057,0.012l-0.058,0.009l-0.013,0.002l-0.061,0.005l-0.062,0.002l-0.011,0l-0.063,-0.002l-0.062,-0.006l-0.009,-0.001l-0.056,-0.01l-0.027,0.027l-0.069,0.068l-0.082,0.077l-0.083,0.073l-0.076,0.066l-0.072,0.062l-0.062,0.051l-0.062,0.051l-0.062,0.048l-0.061,0.045l-0.062,0.044l-0.065,0.043l-0.071,0.042l-0.081,0.043l-0.056,0.024l-0.086,0.034l-0.021,0.007l-0.062,0.018l-0.063,0.015l-0.018,0.004l-0.065,0.01l-0.065,0.007l-0.008,0l-0.11,0.001l-0.007,0l-0.065,-0.006l-0.065,-0.009l-0.006,-0.001l-0.074,-0.016l-0.03,-0.009l-0.004,0.004l-0.058,0.05l-0.061,0.045l-0.002,0.001l-0.091,0.056l-0.096,0.045l-0.101,0.034l-0.103,0.024l-0.106,0.013l-0.106,0.002l-0.106,-0.01l-0.104,-0.021l-0.102,-0.032l-0.097,-0.043l-0.092,-0.052l-0.001,-0.001l-0.088,-0.063l-0.08,-0.073l-0.073,-0.081l-0.063,-0.088l-0.053,-0.095l-0.042,-0.099l-0.032,-0.104l-0.02,-0.107l-0.008,-0.108l0.003,-0.108l0.015,-0.107l0.027,-0.106l0.038,-0.101l0.048,-0.097l0.004,-0.008l0.059,-0.09l0.019,-0.026l0.128,-0.17l0.126,-0.164l0.127,-0.162l0.128,-0.163l0.128,-0.161l0.13,-0.16l0.132,-0.16l0.132,-0.159l0.133,-0.158l0.134,-0.158l0.135,-0.157l0.136,-0.156l0.137,-0.155l0.138,-0.154l0.139,-0.154l0.139,-0.153l0.141,-0.152l0.141,-0.152l0.143,-0.151l0.086,-0.09l0.058,-0.073l0.115,-0.147l0.134,-0.17l0.136,-0.172l0.137,-0.171l0.137,-0.169l0.139,-0.169l0.14,-0.167l0.141,-0.167l0.141,-0.166l0.143,-0.164l0.144,-0.164l0.144,-0.163l0.146,-0.161l0.147,-0.161l0.148,-0.16l0.149,-0.159l0.15,-0.158l0.151,-0.157l0.152,-0.156l0.153,-0.155l0.155,-0.154l0.156,-0.153l0.157,-0.152l0.158,-0.151l0.159,-0.15l0.161,-0.15l0.162,-0.148l0.163,-0.147l0.164,-0.147l0.166,-0.145l0.167,-0.145l0.168,-0.144l0.164,-0.138l0.097,-0.082l0.097,-0.086l0.102,-0.092l0.107,-0.099l0.228,-0.208l0.121,-0.11l0.126,-0.111l0.129,-0.11l0.069,-0.057l0.069,-0.056l0.07,-0.055l0.071,-0.055l0.073,-0.055l0.075,-0.053l0.077,-0.053l0.078,-0.052l0.081,-0.051l0.082,-0.05l0.085,-0.048l0.087,-0.046l0.09,-0.045l0.1,-0.046l0.035,-0.014l0.098,-0.033l0.009,-0.002l0.088,-0.021l0.09,-0.013l0.006,0l0.088,-0.005l0.089,0.004l0.088,0.011l0.087,0.019l0.004,0.001l0.1,0.033l0.097,0.043l0.064,0.037l0.162,-0.109l0.328,-0.218l0.326,-0.216l0.323,-0.215l0.341,-0.227l0.058,-0.036l0.066,-0.036l0.064,-0.033l0.069,-0.032l0.075,-0.033l0.081,-0.033l0.088,-0.033l0.091,-0.03l0.056,-0.017l0.055,-0.015l0.058,-0.014l0.063,-0.012l0.068,-0.011l0.075,-0.009l0.084,-0.005l0.095,0l0.062,0.005l0.095,0.013l0.02,0.003l0.058,0.012l0.057,0.016l0.018,0.006l0.069,0.023l0.066,0.029l0.016,0.007l0.056,0.029l0.055,0.032l0.007,0.005l0.075,0.053l0.007,0.005l0.074,0.064l0.006,0.006l0.07,0.073l0.006,0.006l0.063,0.082l0.005,0.007l0.055,0.088l0.004,0.008l0.044,0.091l0.004,0.008l0.034,0.091l0.015,0.048l0.024,0.104l0.014,0.098l0.008,0.095l0.001,0.093l-0.004,0.088l-0.009,0.085l-0.013,0.082l-0.017,0.077l-0.019,0.073l-0.022,0.07l-0.024,0.067l-0.025,0.064l-0.027,0.062l-0.028,0.059l-0.029,0.056l-0.029,0.055l-0.031,0.053l-0.031,0.052l-0.032,0.05l-0.034,0.052l-0.064,0.09l-0.024,0.033l0.085,-0.048l0.194,-0.106l0.196,-0.105l0.198,-0.103l0.2,-0.101l0.202,-0.099l0.202,-0.096l0.104,-0.048l0.103,-0.046l0.103,-0.046l0.104,-0.046l0.104,-0.044l0.105,-0.044l0.106,-0.043l0.108,-0.043l0.157,-0.061l0.084,-0.031l0.084,-0.03l0.085,-0.029l0.087,-0.028l0.087,-0.028l0.07,-0.021l0.045,-0.018l0.077,-0.031l0.062,-0.023l0.072,-0.023l0.088,-0.025l0.095,-0.019l0.074,-0.01l0.07,-0.006l0.079,-0.002l0.087,0.004l0.096,0.012l0.055,0.012l0.095,0.025l0.012,0.004l0.099,0.037l0.011,0.005l0.1,0.052l0.011,0.006l0.05,0.031l0.047,0.033l0.01,0.008l0.046,0.037l0.043,0.039l0.01,0.009l0.078,0.083l0.008,0.01l0.067,0.09l0.013,0.019l0.031,0.05l0.028,0.052l0.01,0.02l0.025,0.054l0.022,0.055l0.007,0.02l0.018,0.056l0.015,0.056l0.005,0.021l0.019,0.108l0.003,0.022l0.007,0.102l0,0.022l-0.003,0.094l-0.003,0.036l0.056,-0.002l0.015,0l0.079,0.002l0.078,0.008l0.014,0.002l0.099,0.02l0.096,0.029l0.012,0.005l0.081,0.033l0.079,0.041l0.005,0.003l0.054,0.034l0.052,0.037l0.005,0.003l0.05,0.041l0.048,0.045l0.004,0.004l0.044,0.046l0.041,0.05l0.004,0.005l0.036,0.049l0.033,0.052l0.004,0.006l0.053,0.101l0.003,0.006l0.028,0.07l0.023,0.072l0.005,0.015l0.018,0.08l0.013,0.081l0.002,0.018l0.005,0.061l0.001,0.062l0,0.017l-0.007,0.101l-0.007,0.06l-0.019,0.097l-0.005,0.015l0.11,-0.081l0.147,-0.109l0.148,-0.107l0.148,-0.107l0.149,-0.106l0.295,-0.208l0.296,-0.206l0.559,-0.387l0.02,-0.018l0.055,-0.05l0.045,-0.039l0.054,-0.045l0.07,-0.053l0.081,-0.052l0.068,-0.038l0.071,-0.035l0.045,-0.017l0.084,-0.029l0.011,-0.004l0.106,-0.025l0.01,-0.001l0.066,-0.01l0.065,-0.005l0.01,-0.001l0.078,0l0.078,0.005l0.01,0.001l0.087,0.014l0.086,0.021l0.009,0.003l0.089,0.031l0.085,0.039l0.009,0.004l0.081,0.047l0.076,0.054l0.008,0.006l0.066,0.056l0.06,0.062l0.007,0.008l0.049,0.058l0.044,0.061l0.006,0.01l0.033,0.053l0.029,0.055l0.01,0.019l0.025,0.055l0.022,0.057l0.007,0.019l0.019,0.061l0.015,0.063l0.004,0.019l0.012,0.064l0.007,0.064l0.001,0.019l0.003,0.064l-0.001,0.063l-0.001,0.019l-0.004,0.06l-0.009,0.06l-0.003,0.018l-0.024,0.107l-0.006,0.019l-0.032,0.093l-0.023,0.059l-0.046,0.091l-0.047,0.079l-0.047,0.068l-0.046,0.059l-0.045,0.052l-0.042,0.045l-0.041,0.041l-0.043,0.04l-0.066,0.058l-0.064,0.052l-0.057,0.044l-0.047,0.036l-0.038,0.028l-0.026,0.021l-0.011,0.009l-0.009,0.008l-0.103,0.097l-0.115,0.106l-0.115,0.105l-0.115,0.104l-0.225,0.2l-0.225,0.199l-0.629,0.554l-0.631,0.552l-1.259,1.101l-0.669,0.588l-0.695,0.612l-0.718,0.635l-0.736,0.653l-0.158,0.141l0.307,-0.216l0.178,-0.125l0.177,-0.122l0.176,-0.121l0.175,-0.119l0.174,-0.118l0.173,-0.116l0.172,-0.113l0.17,-0.112l0.169,-0.11l0.166,-0.106l0.217,-0.14l0.217,-0.141l0.443,-0.29l0.226,-0.147l0.228,-0.149l0.232,-0.148l0.234,-0.147l0.119,-0.074l0.12,-0.073l0.12,-0.073l0.121,-0.072l0.122,-0.071l0.124,-0.071l0.124,-0.07l0.125,-0.069l0.126,-0.068l0.127,-0.067l0.128,-0.066l0.129,-0.064l0.13,-0.063l0.132,-0.062l0.132,-0.06l0.122,-0.053l0.081,-0.036l0.146,-0.066l0.097,-0.042l0.105,-0.045l0.114,-0.046l0.121,-0.046l0.123,-0.044l0.068,-0.023l0.067,-0.022l0.069,-0.02l0.071,-0.019l0.074,-0.018l0.077,-0.017l0.081,-0.014l0.088,-0.012l0.097,-0.008l0.098,-0.002l0.069,0.003l0.066,0.006l0.07,0.01l0.077,0.016l0.084,0.023l0.09,0.033l0.051,0.024l0.087,0.046l0.01,0.006l0.05,0.031l0.047,0.034l0.016,0.012l0.054,0.044l0.05,0.048l0.013,0.013l0.052,0.056l0.048,0.061l0.01,0.014l0.045,0.068l0.039,0.071l0.008,0.014l0.033,0.075l0.027,0.076l0.005,0.016l0.02,0.074l0.014,0.076l0.003,0.016l0.008,0.069l0.003,0.07l0,0.017l-0.002,0.061l-0.005,0.061l-0.002,0.017l-0.017,0.103l-0.013,0.061l-0.031,0.096l-0.033,0.083l-0.008,0.018l0.008,-0.004l0.175,-0.096l0.179,-0.095l0.181,-0.093l0.094,-0.047l0.084,-0.041l0.014,-0.007l0.02,-0.011l0.073,-0.039l0.092,-0.05l0.058,-0.03l0.062,-0.03l0.073,-0.033l0.079,-0.031l0.063,-0.021l0.067,-0.02l0.086,-0.018l0.054,-0.007l0.061,-0.006l0.061,-0.002l0.01,0l0.089,0.003l0.089,0.011l0.008,0.002l0.085,0.019l0.083,0.026l0.08,0.033l0.007,0.003l0.078,0.04l0.074,0.047l0.07,0.054l0.065,0.059l0.005,0.005l0.064,0.07l0.057,0.076l0.049,0.082l0.042,0.086l0.003,0.006l0.036,0.099l0.026,0.103l0.015,0.104l0,0.009l0.004,0.112l-0.009,0.112l-0.002,0.01l-0.013,0.075l-0.019,0.074l-0.014,0.049l-0.038,0.098l-0.033,0.078l-0.035,0.076l-0.036,0.074l-0.039,0.072l-0.04,0.071l-0.041,0.069l-0.043,0.067l-0.044,0.067l-0.045,0.065l-0.046,0.064l-0.047,0.063l-0.048,0.062l-0.049,0.061l-0.05,0.061l-0.051,0.059l-0.052,0.059l-0.052,0.058l-0.053,0.058l-0.055,0.059l-0.107,0.11l-0.016,0.015l0.198,-0.133l0.208,-0.138l0.21,-0.139l0.213,-0.137l0.214,-0.136l0.216,-0.134l0.218,-0.133l0.22,-0.131l0.112,-0.065l0.112,-0.064l0.112,-0.064l0.113,-0.063l0.113,-0.062l0.114,-0.061l0.115,-0.061l0.115,-0.06l0.116,-0.059l0.117,-0.059l0.117,-0.057l0.109,-0.052l0.009,-0.005l0.003,-0.001l0.034,-0.019l0.046,-0.027l0.057,-0.036l0.069,-0.041l0.077,-0.046l0.084,-0.047l0.051,-0.028l0.051,-0.026l0.055,-0.026l0.059,-0.027l0.065,-0.026l0.072,-0.026l0.08,-0.024l0.091,-0.021l0.104,-0.018l0.068,-0.005l0.103,-0.002l0.024,0l0.089,0.007l0.044,0.005l0.079,0.014l0.081,0.021l0.084,0.029l0.084,0.037l0.084,0.044l0.081,0.053l0.076,0.059l0.07,0.065l0.063,0.07l0.056,0.072l0.048,0.073l0.04,0.073l0.036,0.075l0.034,0.09l0.029,0.093l0.02,0.092l0.014,0.09l0.008,0.088l0.003,0.084l-0.003,0.08l-0.006,0.077l-0.009,0.074l-0.013,0.07l-0.014,0.067l-0.017,0.064l-0.018,0.061l-0.02,0.059l-0.021,0.057l-0.022,0.055l-0.023,0.053l-0.026,0.056l-0.046,0.093l-0.052,0.094l-0.053,0.089l-0.055,0.086l-0.056,0.084l-0.057,0.08l-0.057,0.078l-0.058,0.075l-0.058,0.073l-0.058,0.071l-0.058,0.068l-0.056,0.066l-0.057,0.064l-0.105,0.116l-0.099,0.106l-0.086,0.091l-0.11,0.115l0.041,-0.02l0.085,-0.039l0.093,-0.039l0.094,-0.034l0.097,-0.031l0.099,-0.025l0.102,-0.021l0.106,-0.015l0.101,-0.008l0.066,-0.001l0.058,0.001l0.06,0.003l0.061,0.006l0.063,0.009l0.063,0.012l0.065,0.016l0.066,0.02l0.067,0.023l0.067,0.029l0.068,0.033l0.066,0.038l0.066,0.044l0.064,0.048l0.061,0.053l0.059,0.058l0.054,0.062l0.05,0.065l0.045,0.069l0.04,0.071l0.035,0.072l0.03,0.073l0.024,0.073l0.019,0.073l0.015,0.071l0.01,0.071l0.006,0.068l0.003,0.067l-0.001,0.066l-0.003,0.063l-0.006,0.061l-0.009,0.059l-0.011,0.058l-0.014,0.064l-0.028,0.098l-0.035,0.101l-0.041,0.097l-0.045,0.092l-0.049,0.089l-0.053,0.087l-0.053,0.079l-0.08,0.112l-0.081,0.112l-0.086,0.115l-0.09,0.119l-0.093,0.122l-0.096,0.123l-0.098,0.125l-0.099,0.125l-0.197,0.245l-0.193,0.235l-0.181,0.217l-0.163,0.191l-0.152,0.174l-0.155,0.172l-0.155,0.17l-0.158,0.167l-0.159,0.166l-0.161,0.165l-0.161,0.162l-0.164,0.161l-0.07,0.069l0.036,-0.02l0.189,-0.106l0.19,-0.105l0.191,-0.103l0.192,-0.103l0.193,-0.102l0.193,-0.101l0.195,-0.1l0.196,-0.099l0.197,-0.097l0.189,-0.092l0.037,-0.018l0.062,-0.032l0.189,-0.097l0.12,-0.06l0.132,-0.064l0.142,-0.067l0.147,-0.066l0.08,-0.034l0.08,-0.033l0.08,-0.033l0.083,-0.031l0.083,-0.03l0.086,-0.029l0.087,-0.028l0.089,-0.025l0.093,-0.024l0.096,-0.02l0.095,-0.016l0.06,-0.008l0.055,-0.006l0.058,-0.004l0.062,-0.002l0.064,0l0.068,0.003Z"/>
  <path d="M30.103,13.33l0.055,0.004l0.055,0.007l0.054,0.01l0.054,0.012l0.053,0.016l0.052,0.019l0.051,0.021l0.049,0.024l0.049,0.027l0.046,0.03l0.015,0.01l0.018,0.002l0.053,0.007l0.053,0.01l0.051,0.013l0.051,0.015l0.048,0.017l0.045,0.019l0.044,0.02l0.042,0.023l0.042,0.025l0.042,0.028l0.04,0.029l0.039,0.032l0.037,0.034l0.036,0.035l0.033,0.037l0.004,0.004l0.031,0.039l0.03,0.04l0.027,0.041l0.003,0.004l0.022,0.037l0.02,0.038l0.019,0.039l0.017,0.039l0.002,0.004l0.017,0.044l0.015,0.044l0.012,0.045l0.011,0.046l0,0.004l0.009,0.047l0.006,0.047l0.004,0.048l0.002,0.048l0,0.004l-0.001,0.044l-0.002,0.045l-0.005,0.045l-0.006,0.044l-0.001,0.004l-0.009,0.045l-0.01,0.045l-0.013,0.043l-0.015,0.044l-0.017,0.042l-0.003,0.008l-0.018,0.041l-0.02,0.04l-0.022,0.039l-0.023,0.038l-0.026,0.037l-0.005,0.008l-0.03,0.04l-0.032,0.038l-0.033,0.036l-0.008,0.008l-0.035,0.035l-0.037,0.033l-0.035,0.029l-0.061,0.046l-0.062,0.04l-0.002,0.001l-0.057,0.05l-0.113,0.095l-0.064,0.052l-0.065,0.052l-0.069,0.053l-0.071,0.052l-0.101,0.071l-0.099,0.068l-0.097,0.065l-0.096,0.063l-0.184,0.118l-0.181,0.115l-0.566,0.364l-0.57,0.362l-0.149,0.094l-0.045,0.038l-0.156,0.139l-0.155,0.14l-0.154,0.142l-0.157,0.147l-0.041,0.036l-0.043,0.035l-0.045,0.031l-0.047,0.03l-0.048,0.026l-0.05,0.024l-0.051,0.021l-0.052,0.019l-0.053,0.015l-0.053,0.013l-0.055,0.009l-0.054,0.007l-0.055,0.003l-0.056,0.001l-0.035,-0.002l-0.17,0.105l-0.289,0.176l-0.291,0.175l-0.29,0.175l-0.292,0.173l-0.292,0.173l-0.29,0.169l-0.175,0.103l-0.172,0.103l-0.352,0.214l-0.179,0.109l-0.182,0.11l-0.185,0.11l-0.179,0.104l-0.018,0.011l-0.021,0.013l-0.076,0.049l-0.092,0.058l-0.055,0.034l-0.058,0.035l-0.065,0.037l-0.078,0.04l-0.091,0.041l-0.084,0.03l-0.048,0.013l-0.037,0.009l-0.038,0.008l-0.038,0.007l-0.009,0.001l-0.046,0.006l-0.046,0.004l-0.046,0.001l-0.046,0l-0.008,0l-0.052,-0.003l-0.051,-0.006l-0.051,-0.008l-0.05,-0.011l-0.05,-0.014l-0.049,-0.016l-0.006,-0.002l-0.049,-0.019l-0.048,-0.021l-0.046,-0.024l-0.046,-0.026l-0.044,-0.029l-0.042,-0.031l-0.04,-0.033l-0.039,-0.035l-0.037,-0.037l-0.004,-0.004l-0.037,-0.041l-0.034,-0.043l-0.032,-0.045l-0.03,-0.046l-0.026,-0.048l-0.025,-0.049l-0.021,-0.051l-0.019,-0.052l-0.015,-0.053l-0.002,-0.006l-0.012,-0.047l-0.009,-0.048l-0.007,-0.049l-0.004,-0.049l-0.002,-0.048l0,-0.049l0.003,-0.049l0.001,-0.009l0.005,-0.051l0.008,-0.05l0.011,-0.05l0.013,-0.05l0.003,-0.01l0.013,-0.04l0.014,-0.04l0.016,-0.039l0.02,-0.046l0.036,-0.069l0.033,-0.055l0.032,-0.05l0.036,-0.052l0.057,-0.075l0.062,-0.072l0.062,-0.067l0.061,-0.062l0.062,-0.059l0.062,-0.057l0.063,-0.055l0.064,-0.054l0.064,-0.052l0.065,-0.052l0.065,-0.051l0.066,-0.051l0.128,-0.095l0.127,-0.092l0.055,-0.038l0.001,-0.004l0.014,-0.051l0.018,-0.049l0.02,-0.048l0.022,-0.048l0.025,-0.046l0.027,-0.044l0.029,-0.043l0.032,-0.042l0.003,-0.004l0.03,-0.035l0.032,-0.035l0.033,-0.033l0.035,-0.031l0.039,-0.033l0.076,-0.054l0.102,-0.068l0.094,-0.059l0.09,-0.055l0.085,-0.05l0.155,-0.092l0.069,-0.041l0.068,-0.042l0.439,-0.278l0.444,-0.279l0.547,-0.342l0.547,-0.342l0.549,-0.343l0.551,-0.342l0.277,-0.171l0.278,-0.17l0.279,-0.169l0.279,-0.169l0.281,-0.167l0.282,-0.167l0.283,-0.165l0.286,-0.165l0.018,-0.011l0.049,-0.025l0.05,-0.023l0.052,-0.021l0.052,-0.017l0.054,-0.015l0.054,-0.011l0.054,-0.008l0.055,-0.006l0.055,-0.002l0.056,0Z"/>
</svg>