<?xml version="1.0" encoding="UTF-8" standalone="no"?><!DOCTYPE svg PUBLIC "-//W3C//DTD SVG 1.1//EN" "http://www.w3.org/Graphics/SVG/1.1/DTD/svg11.dtd">
<svg width="100%" height="100%" viewBox="0 0 48 48" version="1.1" 
  xmlns="http://www.w3.org/2000/svg" 
  xmlns:xlink="http://www.w3.org/1999/xlink" xml:space="preserve" 
  xmlns:serif="http://www.serif.com/" style="fill-rule:evenodd;clip-rule:evenodd;stroke-linejoin:round;stroke-miterlimit:2;">
  <path d="M18.302,43.365l0.112,0.003l0.111,0.004l0.11,0.005l0.108,0.006l0.109,0.007l0.206,0.016l0.204,0.018l0.389,0.036l0.186,0.017l0.18,0.015l0.177,0.013l0.083,0.006l0.083,0.004l0.081,0.004l0.08,0.002l0.078,0.002l0.081,0l0.935,-0.001l0.94,-0.004l0.942,-0.005l0.942,-0.006l0.944,-0.007l0.945,-0.005l0.946,-0.004l0.947,-0.001l0.39,0l0.392,0.001l0.391,0.003l0.393,0.003l0.393,0.005l0.394,0.007l0.394,0.008l0.394,0.01l0.395,0.012l0.396,0.015l0.396,0.016l0.396,0.02l0.396,0.022l0.395,0.025l0.2,0.014l0.198,0.014l0.198,0.015l0.2,0.017l0.138,0.012l0.138,0.013l0.265,0.028l0.258,0.028l0.25,0.026l0.12,0.012l0.118,0.011l0.115,0.01l0.113,0.008l0.111,0.006l0.107,0.005l0.106,0.003l0.119,0.001l0.114,0.002l0.166,0.004l0.37,0.012l0.17,0.006l0.133,0.007l0.075,0.004l0.045,0.005l0.096,0.013l0.094,0.021l0.093,0.027l0.091,0.034l0.088,0.04l0.084,0.047l0.001,0l0.096,0.063l0.089,0.07l0.084,0.078l0.077,0.084l0.069,0.091l0.061,0.097l0.053,0.101l0.044,0.105l0.035,0.109l0.026,0.111l0.016,0.113l0.006,0.114l-0.003,0.115l-0.013,0.113l-0.023,0.112l-0.032,0.11l-0.041,0.106l-0.05,0.103l-0.058,0.098l-0.067,0.092l-0.075,0.087l-0.081,0.08l-0.088,0.073l-0.094,0.065l-0.099,0.057l-0.103,0.049l-0.107,0.039l-0.001,0l-0.103,0.029l-0.105,0.02l-0.105,0.012l-0.047,0.003l-0.072,0.001l-0.114,-0.004l-0.06,-0.007l-0.028,-0.001l-0.152,-0.006l-0.351,-0.011l-0.142,-0.004l-0.094,-0.001l-0.139,-0.001l-0.152,-0.005l-0.149,-0.006l-0.148,-0.009l-0.144,-0.01l-0.142,-0.012l-0.139,-0.013l-0.138,-0.014l-0.264,-0.028l-0.255,-0.028l-0.248,-0.025l-0.117,-0.012l-0.117,-0.01l-0.186,-0.015l-0.187,-0.014l-0.187,-0.014l-0.187,-0.013l-0.378,-0.024l-0.377,-0.021l-0.378,-0.018l-0.379,-0.016l-0.38,-0.014l-0.38,-0.012l-0.382,-0.01l-0.382,-0.008l-0.382,-0.006l-0.383,-0.005l-0.384,-0.003l-0.384,-0.003l-0.384,-0.001l-0.385,0l-0.94,0.001l-0.94,0.004l-0.942,0.005l-0.942,0.006l-0.944,0.007l-0.945,0.005l-0.945,0.004l-0.951,0.001l-0.11,0l-0.112,-0.003l-0.112,-0.003l-0.109,-0.005l-0.109,-0.006l-0.109,-0.007l-0.206,-0.015l-0.205,-0.017l-0.197,-0.019l-0.382,-0.035l-0.181,-0.016l-0.178,-0.013l-0.083,-0.006l-0.084,-0.005l-0.082,-0.004l-0.081,-0.003l-0.079,-0.002l-0.078,0l-0.076,0l-0.074,0.001l-0.073,0.002l-0.071,0.004l-0.069,0.005l-0.073,0.007l-0.191,0.019l-0.18,0.019l-0.164,0.018l-0.149,0.017l-0.135,0.017l-0.122,0.015l-0.111,0.015l-0.101,0.014l-0.092,0.014l-0.081,0.012l-0.153,0.026l-0.138,0.024l-0.137,0.026l-0.147,0.027l-0.163,0.029l-0.184,0.031l-0.105,0.016l-0.11,0.017l-0.119,0.016l-0.128,0.017l-0.138,0.018l-0.15,0.018l-0.162,0.019l-0.175,0.019l-0.191,0.02l-0.213,0.022l-0.07,0.006l-0.076,0.005l-0.074,0.003l-0.072,0.001l-0.071,0l-0.074,-0.001l-0.124,-0.006l-0.123,-0.01l-0.115,-0.011l-0.107,-0.013l-0.099,-0.013l-0.173,-0.024l-0.075,-0.01l-0.067,-0.008l-0.058,-0.007l-0.051,-0.004l-0.049,-0.003l-0.013,0l-0.03,0l-0.114,-0.006l-0.113,-0.016l-0.111,-0.025l-0.109,-0.034l-0.105,-0.044l-0.101,-0.052l-0.097,-0.061l-0.091,-0.069l-0.085,-0.076l-0.078,-0.083l-0.071,-0.09l-0.063,-0.095l-0.054,-0.1l-0.046,-0.104l-0.037,-0.108l-0.028,-0.111l-0.018,-0.113l-0.009,-0.113l0.001,-0.114l0.011,-0.114l0.021,-0.112l0.029,-0.11l0.04,-0.108l0.048,-0.103l0.056,-0.099l0.065,-0.094l0.073,-0.088l0.079,-0.082l0.087,-0.074l0.092,-0.067l0.098,-0.059l0.102,-0.05l0.106,-0.042l0.11,-0.032l0.112,-0.023l0.113,-0.013l0.114,-0.004l0.056,0l0.072,0.003l0.122,0.006l0.12,0.01l0.112,0.012l0.104,0.013l0.095,0.013l0.17,0.023l0.072,0.01l0.066,0.008l0.058,0.006l0.05,0.004l0.05,0.002l0.014,0l0.018,0l0.015,0l0.015,-0.001l0.013,0l0.019,-0.002l0.189,-0.019l0.178,-0.019l0.163,-0.018l0.149,-0.017l0.134,-0.017l0.122,-0.015l0.11,-0.015l0.101,-0.014l0.091,-0.013l0.081,-0.013l0.152,-0.025l0.138,-0.025l0.137,-0.026l0.147,-0.027l0.164,-0.029l0.184,-0.031l0.105,-0.016l0.111,-0.017l0.119,-0.016l0.129,-0.017l0.139,-0.018l0.15,-0.018l0.163,-0.019l0.176,-0.019l0.191,-0.021l0.212,-0.021l0.116,-0.011l0.121,-0.008l0.119,-0.006l0.118,-0.004l0.117,-0.002l0.115,0l0.114,0.001Zm18.863,0.543l-0.026,0.008l0.001,0l0.092,-0.013l-0.067,0.005Zm0.194,-0.014l-0.02,0.002l0.028,-0.002l-0.008,0Z"/>
  <path d="M40.975,12.448l0.199,0.004l0.199,0.004l0.389,0.011l0.767,0.025l0.376,0.011l0.185,0.004l0.184,0.003l0.182,0.002l0.192,0.001l0.152,0.001l0.155,0.005l0.147,0.006l0.139,0.006l0.131,0.006l0.122,0.005l0.114,0.003l0.082,0.001l0.046,-0.006l0.049,-0.008l0.049,-0.009l0.04,-0.008l0.043,-0.008l0.144,-0.022l0.145,-0.006l0.144,0.01l0.143,0.025l0.139,0.041l0.134,0.055l0.128,0.07l0.119,0.082l0.109,0.096l0.099,0.106l0.086,0.116l0.074,0.125l0.059,0.132l0.046,0.138l0.029,0.142l0.015,0.144l-0.001,0.145l-0.017,0.144l-0.032,0.142l-0.047,0.137l-0.062,0.131l-0.075,0.124l-0.089,0.115l-0.1,0.104l-0.111,0.094l-0.12,0.081l-0.129,0.067l-0.135,0.053l-0.303,0.101l-0.14,0.039l-0.144,0.023l-0.145,0.007l-0.145,-0.008l-0.144,-0.024l-0.01,-0.003l-0.026,0l-0.153,-0.005l-0.146,-0.005l-0.138,-0.007l-0.131,-0.006l-0.123,-0.005l-0.116,-0.003l-0.12,-0.001l-0.192,-0.001l-0.2,-0.002l-0.2,-0.004l-0.199,-0.004l-0.389,-0.011l-0.386,-0.013l-0.381,-0.012l-0.376,-0.01l-0.185,-0.005l-0.184,-0.003l-0.182,-0.002l-0.184,-0.001l-9.292,0l-0.201,0.001l-0.199,0.002l-0.2,0.003l-0.202,0.004l-0.202,0.005l-0.202,0.006l-0.41,0.013l-0.413,0.015l-0.416,0.017l-0.42,0.016l-0.422,0.015l-0.425,0.014l-0.215,0.005l-0.215,0.005l-0.215,0.004l-0.217,0.003l-0.217,0.001l-0.218,0l-0.218,-0.001l-0.219,-0.003l-0.22,-0.005l-0.22,-0.007l-0.222,-0.009l-0.221,-0.011l-0.223,-0.013l-0.217,-0.016l-0.273,-0.02l-0.268,-0.018l-0.269,-0.017l-0.269,-0.015l-0.269,-0.013l-0.27,-0.012l-0.269,-0.009l-0.27,-0.008l-0.269,-0.006l-0.269,-0.004l-0.269,-0.002l-0.268,0.001l-0.267,0.003l-0.266,0.005l-0.264,0.007l-0.264,0.01l-0.283,0.013l-0.287,0.015l-0.292,0.017l-0.297,0.018l-0.301,0.019l-0.305,0.018l-0.309,0.017l-0.31,0.016l-0.159,0.007l-0.158,0.006l-0.158,0.005l-0.16,0.004l-0.16,0.004l-0.16,0.002l-0.161,0.001l-0.162,-0.001l-0.162,-0.002l-0.163,-0.003l-0.163,-0.006l-0.164,-0.007l-0.164,-0.008l-0.165,-0.011l-0.165,-0.013l-0.156,-0.015l-0.164,-0.015l-0.156,-0.013l-0.157,-0.012l-0.158,-0.01l-0.159,-0.008l-0.159,-0.008l-0.161,-0.006l-0.161,-0.004l-0.163,-0.004l-0.163,-0.002l-0.164,-0.002l-0.165,0l-0.165,0l-0.165,0.001l-0.336,0.004l-0.338,0.006l-0.34,0.008l-0.689,0.017l-0.347,0.007l-0.35,0.007l-0.351,0.004l-0.178,0.002l-0.179,0l-0.113,0l-0.115,-0.002l-0.114,-0.003l-0.116,-0.004l-0.22,-0.01l-0.22,-0.012l-0.215,-0.014l-0.211,-0.014l-0.207,-0.014l-0.202,-0.013l-0.197,-0.011l-0.194,-0.008l-0.091,-0.003l-0.092,-0.003l-0.091,-0.001l-0.088,-0.001l-0.088,0.001l-0.085,0.001l-0.084,0.003l-0.081,0.004l-0.08,0.005l-0.078,0.006l-0.076,0.007l-0.082,0.009l-0.206,0.026l-0.216,0.025l-0.217,0.024l-0.218,0.023l-0.219,0.021l-0.221,0.021l-0.221,0.018l-0.222,0.018l-0.223,0.015l-0.223,0.014l-0.224,0.012l-0.223,0.01l-0.224,0.008l-0.224,0.006l-0.223,0.003l-0.216,0.002l-0.145,-0.008l-0.144,-0.022l-0.14,-0.038l-0.136,-0.054l-0.129,-0.067l-0.121,-0.081l-0.111,-0.094l-0.101,-0.105l-0.088,-0.115l-0.076,-0.124l-0.062,-0.132l-0.047,-0.138l-0.032,-0.142l-0.017,-0.144l-0.001,-0.146l0.015,-0.145l0.031,-0.142l0.046,-0.138l0.06,-0.132l0.074,-0.126l0.088,-0.116l0.099,-0.106l0.111,-0.095l0.12,-0.082l0.128,-0.069l0.135,-0.055l0.14,-0.039l0.143,-0.025l0.146,-0.008l0.201,-0.001l0.196,-0.004l0.197,-0.005l0.198,-0.007l0.2,-0.009l0.201,-0.011l0.201,-0.012l0.202,-0.014l0.202,-0.016l0.203,-0.017l0.202,-0.019l0.202,-0.02l0.202,-0.021l0.201,-0.022l0.201,-0.023l0.208,-0.026l0.117,-0.013l0.125,-0.012l0.124,-0.01l0.123,-0.008l0.122,-0.005l0.121,-0.004l0.12,-0.002l0.119,-0.001l0.118,0.001l0.117,0.002l0.116,0.003l0.117,0.004l0.223,0.01l0.221,0.012l0.217,0.014l0.212,0.014l0.206,0.014l0.201,0.012l0.195,0.011l0.191,0.009l0.09,0.003l0.09,0.002l0.088,0.002l0.088,0l0.163,0l0.164,-0.001l0.335,-0.005l0.336,-0.006l0.34,-0.008l0.689,-0.017l0.348,-0.007l0.352,-0.007l0.352,-0.004l0.179,-0.001l0.179,0l0.179,0l0.18,0.002l0.18,0.003l0.181,0.004l0.182,0.005l0.182,0.007l0.182,0.008l0.183,0.01l0.184,0.011l0.183,0.014l0.185,0.015l0.176,0.017l0.137,0.012l0.13,0.011l0.131,0.008l0.132,0.008l0.134,0.005l0.135,0.005l0.136,0.002l0.137,0.002l0.138,0.001l0.14,-0.001l0.14,-0.002l0.142,-0.003l0.142,-0.004l0.143,-0.005l0.144,-0.005l0.144,-0.006l0.294,-0.015l0.294,-0.016l0.297,-0.018l0.3,-0.018l0.301,-0.019l0.302,-0.018l0.304,-0.016l0.305,-0.014l0.289,-0.011l0.289,-0.008l0.29,-0.005l0.289,-0.003l0.29,-0.001l0.29,0.002l0.29,0.004l0.289,0.007l0.289,0.008l0.288,0.01l0.288,0.013l0.287,0.014l0.286,0.016l0.285,0.018l0.284,0.019l0.277,0.02l0.198,0.015l0.194,0.011l0.195,0.01l0.196,0.008l0.196,0.006l0.198,0.004l0.198,0.003l0.199,0.001l0.2,0l0.2,-0.001l0.202,-0.003l0.202,-0.003l0.203,-0.005l0.203,-0.005l0.412,-0.013l0.413,-0.015l0.415,-0.016l0.419,-0.017l0.421,-0.015l0.422,-0.014l0.213,-0.006l0.214,-0.005l0.214,-0.005l0.214,-0.003l0.215,-0.002l0.214,-0.001l9.301,0l0.199,0.001l0.201,0.002Z"/>
  <path d="M44.513,13.344l0.12,0.011l0.119,0.023l0.116,0.032l0.113,0.043l0.108,0.053l0.103,0.062l0.098,0.072l0.09,0.08l0.083,0.087l0.075,0.095l0.065,0.101l0.057,0.106l0.047,0.111l0.037,0.115l0.026,0.118l0.015,0.12l0.005,0.12l-0.006,0.12l-0.008,0.088l-0.007,0.082l-0.006,0.083l-0.006,0.082l-0.01,0.174l-0.009,0.175l-0.007,0.179l-0.006,0.183l-0.012,0.377l-0.007,0.195l-0.009,0.199l-0.011,0.203l-0.014,0.204l-0.009,0.108l-0.009,0.105l-0.011,0.107l-0.011,0.108l-0.014,0.109l-0.014,0.109l-0.016,0.111l-0.018,0.11l-0.024,0.139l-0.025,0.138l-0.026,0.136l-0.028,0.136l-0.029,0.136l-0.03,0.134l-0.032,0.134l-0.032,0.133l-0.033,0.132l-0.035,0.132l-0.035,0.131l-0.036,0.13l-0.037,0.13l-0.038,0.129l-0.039,0.128l-0.039,0.128l-0.04,0.127l-0.041,0.128l-0.082,0.249l-0.085,0.249l-0.087,0.246l-0.088,0.245l-0.089,0.242l-0.09,0.241l-0.09,0.239l-0.181,0.472l-0.179,0.467l-0.088,0.231l-0.087,0.23l-0.085,0.229l-0.083,0.227l-0.082,0.226l-0.079,0.226l-0.076,0.224l-0.074,0.226l-0.035,0.109l-0.035,0.112l-0.034,0.111l-0.033,0.111l-0.033,0.11l-0.031,0.111l-0.03,0.111l-0.03,0.109l-0.053,0.207l-0.051,0.206l-0.049,0.207l-0.048,0.208l-0.046,0.209l-0.044,0.21l-0.042,0.21l-0.041,0.211l-0.04,0.212l-0.038,0.212l-0.037,0.214l-0.035,0.214l-0.035,0.214l-0.033,0.215l-0.032,0.216l-0.031,0.216l-0.031,0.218l-0.029,0.217l-0.029,0.218l-0.027,0.218l-0.054,0.44l-0.052,0.441l-0.05,0.443l-0.05,0.445l-0.098,0.892l-0.065,0.587l-0.063,0.586l-0.124,1.178l-0.125,1.181l-0.064,0.592l-0.065,0.599l-0.015,0.118l-0.017,0.123l-0.019,0.122l-0.021,0.121l-0.022,0.12l-0.025,0.12l-0.026,0.119l-0.027,0.118l-0.028,0.117l-0.03,0.117l-0.03,0.116l-0.032,0.115l-0.032,0.114l-0.034,0.116l-0.067,0.222l-0.07,0.22l-0.07,0.217l-0.071,0.212l-0.071,0.207l-0.137,0.398l-0.064,0.19l-0.064,0.188l-0.038,0.114l-0.04,0.115l-0.076,0.214l-0.034,0.099l-0.032,0.095l-0.029,0.089l-0.026,0.085l-0.024,0.084l-0.009,0.035l-0.009,0.036l-0.009,0.036l-0.007,0.034l-0.007,0.034l-0.006,0.032l-0.005,0.03l-0.004,0.03l-0.004,0.029l-0.003,0.028l-0.002,0.027l-0.002,0.025l-0.001,0.026l0,0.027l0.001,0.109l0,0.114l-0.001,0.132l-0.004,0.139l-0.005,0.082l-0.006,0.086l-0.012,0.103l-0.022,0.126l-0.017,0.065l-0.017,0.06l-0.02,0.06l-0.003,0.009l-0.042,0.102l-0.05,0.097l-0.003,0.007l-0.057,0.093l-0.065,0.088l-0.071,0.082l-0.078,0.076l-0.004,0.004l-0.087,0.073l-0.094,0.065l-0.098,0.056l-0.103,0.049l-0.107,0.039l-0.008,0.003l-0.086,0.025l-0.088,0.018l-0.088,0.013l-0.011,0.002l-0.079,0.006l-0.079,0.002l-0.063,0l-0.114,-0.009l-0.119,-0.018l-0.098,-0.021l-0.073,-0.019l-0.057,-0.016l-0.04,-0.012l-0.114,-0.04l-0.109,-0.05l-0.105,-0.059l-0.099,-0.069l-0.093,-0.078l-0.085,-0.085l-0.077,-0.093l-0.069,-0.099l-0.059,-0.105l-0.05,-0.11l-0.039,-0.114l-0.03,-0.117l-0.018,-0.119l-0.008,-0.12l0.002,-0.121l0.014,-0.119l0.024,-0.119l0.035,-0.115l0.045,-0.112l0.055,-0.107l0.064,-0.101l0,-0.021l0.006,-0.087l0.007,-0.087l0.009,-0.085l0.01,-0.083l0.012,-0.082l0.014,-0.081l0.014,-0.079l0.016,-0.077l0.017,-0.075l0.017,-0.074l0.018,-0.073l0.02,-0.075l0.038,-0.133l0.04,-0.131l0.041,-0.126l0.041,-0.121l0.04,-0.115l0.075,-0.215l0.035,-0.101l0.035,-0.102l0.064,-0.191l0.068,-0.198l0.136,-0.396l0.067,-0.197l0.066,-0.196l0.063,-0.195l0.061,-0.193l0.059,-0.193l0.026,-0.091l0.027,-0.094l0.025,-0.092l0.024,-0.091l0.023,-0.089l0.021,-0.089l0.02,-0.087l0.018,-0.085l0.018,-0.084l0.015,-0.082l0.014,-0.08l0.012,-0.079l0.011,-0.076l0.009,-0.079l0.064,-0.581l0.063,-0.587l0.125,-1.178l0.124,-1.18l0.064,-0.592l0.065,-0.591l0.098,-0.894l0.05,-0.449l0.052,-0.451l0.053,-0.453l0.055,-0.453l0.03,-0.229l0.03,-0.228l0.03,-0.229l0.032,-0.229l0.033,-0.229l0.034,-0.229l0.036,-0.23l0.037,-0.229l0.038,-0.231l0.04,-0.23l0.041,-0.23l0.043,-0.231l0.045,-0.231l0.047,-0.231l0.048,-0.231l0.051,-0.231l0.053,-0.231l0.055,-0.231l0.057,-0.231l0.059,-0.231l0.035,-0.131l0.036,-0.13l0.037,-0.13l0.038,-0.129l0.038,-0.128l0.039,-0.128l0.04,-0.127l0.041,-0.128l0.082,-0.249l0.085,-0.249l0.086,-0.246l0.088,-0.245l0.089,-0.242l0.09,-0.241l0.09,-0.239l0.09,-0.238l0.18,-0.468l0.178,-0.466l0.087,-0.229l0.085,-0.229l0.084,-0.228l0.081,-0.227l0.08,-0.225l0.077,-0.225l0.074,-0.226l0.036,-0.11l0.035,-0.112l0.034,-0.111l0.033,-0.111l0.033,-0.111l0.032,-0.111l0.03,-0.111l0.03,-0.11l0.029,-0.111l0.028,-0.11l0.027,-0.11l0.025,-0.111l0.025,-0.11l0.024,-0.11l0.022,-0.11l0.021,-0.11l0.021,-0.11l0.018,-0.109l0.012,-0.076l0.011,-0.076l0.011,-0.076l0.009,-0.078l0.009,-0.079l0.008,-0.08l0.007,-0.081l0.006,-0.079l0.012,-0.17l0.009,-0.172l0.008,-0.175l0.007,-0.18l0.012,-0.373l0.006,-0.192l0.008,-0.197l0.009,-0.201l0.012,-0.202l0.008,-0.106l0.008,-0.105l0.009,-0.106l0.009,-0.101l0.017,-0.119l0.028,-0.118l0.037,-0.114l0.048,-0.111l0.058,-0.106l0.067,-0.1l0.076,-0.094l0.083,-0.087l0.092,-0.079l0.098,-0.07l0.103,-0.061l0.109,-0.052l0.113,-0.042l0.117,-0.031l0.119,-0.021l0.12,-0.011l0.12,0.001Z"/>
  <path d="M3.673,11.29l0.128,0.015l0.125,0.026l0.122,0.038l0.118,0.049l0.112,0.061l0.107,0.071l0.099,0.081l0.091,0.089l0.082,0.098l0.073,0.106l0.062,0.112l0.051,0.117l0.04,0.121l0.071,0.258l0.073,0.255l0.076,0.259l0.08,0.262l0.082,0.265l0.084,0.268l0.087,0.27l0.087,0.272l0.18,0.551l0.18,0.553l0.09,0.277l0.09,0.278l0.088,0.278l0.084,0.269l0.02,0.063l0.021,0.06l0.023,0.065l0.025,0.069l0.059,0.158l0.062,0.171l0.034,0.096l0.033,0.099l0.033,0.104l0.032,0.11l0.031,0.115l0.029,0.121l0.024,0.121l0.013,0.072l0.01,0.064l0.014,0.107l0.013,0.102l0.011,0.102l0.01,0.101l0.009,0.1l0.009,0.101l0.014,0.192l0.011,0.19l0.01,0.188l0.015,0.357l0.015,0.347l0.008,0.164l0.01,0.161l0.012,0.16l0.006,0.075l0.007,0.076l0.008,0.074l0.008,0.074l0.009,0.073l0.01,0.077l0.079,0.574l0.078,0.578l0.075,0.575l0.149,1.146l0.075,0.572l0.076,0.57l0.078,0.566l0.018,0.117l0.018,0.113l0.021,0.114l0.023,0.115l0.025,0.115l0.026,0.116l0.029,0.117l0.03,0.118l0.032,0.119l0.033,0.119l0.035,0.12l0.037,0.12l0.038,0.122l0.04,0.122l0.041,0.123l0.043,0.123l0.043,0.124l0.045,0.125l0.046,0.125l0.047,0.125l0.098,0.256l0.1,0.257l0.103,0.26l0.106,0.262l0.215,0.531l0.108,0.271l0.108,0.272l0.107,0.276l0.105,0.277l0.052,0.142l0.052,0.141l0.05,0.142l0.049,0.143l0.049,0.144l0.047,0.145l0.047,0.145l0.045,0.147l0.043,0.147l0.043,0.148l0.04,0.149l0.04,0.151l0.037,0.151l0.035,0.152l0.034,0.153l0.031,0.154l0.029,0.156l0.027,0.156l0.024,0.157l0.022,0.159l0.019,0.159l0.016,0.161l0.014,0.161l0.009,0.151l0.008,0.127l0.008,0.116l0.011,0.117l0.012,0.118l0.013,0.12l0.016,0.12l0.016,0.122l0.018,0.123l0.019,0.124l0.02,0.125l0.021,0.126l0.021,0.126l0.047,0.26l0.048,0.263l0.05,0.267l0.05,0.272l0.049,0.274l0.025,0.141l0.024,0.142l0.022,0.142l0.023,0.144l0.021,0.145l0.02,0.146l0.018,0.147l0.018,0.149l0.015,0.15l0.01,0.111l0.002,0.007l0.008,0.022l0.03,0.087l0.04,0.111l0.025,0.076l0.026,0.083l0.027,0.095l0.025,0.106l0.021,0.108l0.011,0.071l0.008,0.06l0.014,0.14l0.011,0.132l0.01,0.13l0.009,0.129l0.014,0.245l0.024,0.466l0.013,0.222l0.007,0.103l0.008,0.103l0.009,0.101l0.01,0.107l0.015,0.144l0.014,0.152l0.012,0.148l0.011,0.147l0.02,0.279l0.019,0.272l0.009,0.128l0.011,0.125l0.011,0.122l0.012,0.117l0.014,0.113l0.014,0.108l0.017,0.107l0.005,0.029l0.008,0.016l0.022,0.037l0.058,0.102l0.039,0.07l0.043,0.081l0.045,0.093l0.043,0.099l0.026,0.066l0.028,0.042l0.037,0.055l0.023,0.039l0.04,0.072l0.036,0.075l0.004,0.009l0.04,0.102l0.032,0.106l0.023,0.108l0.014,0.109l0,0.003l0.005,0.12l-0.005,0.119l-0.017,0.119l-0.027,0.117l-0.037,0.114l-0.047,0.111l-0.057,0.105l-0.066,0.101l-0.074,0.093l-0.001,0.002l-0.089,0.092l-0.097,0.084l-0.105,0.074l-0.111,0.063l-0.116,0.053l-0.122,0.042l-0.124,0.029l-0.127,0.018l-0.128,0.006l-0.128,-0.007l-0.002,0l-0.11,-0.016l-0.108,-0.024l-0.105,-0.033l-0.103,-0.042l-0.004,-0.002l-0.1,-0.051l-0.096,-0.059l-0.053,-0.036l-0.091,-0.072l-0.055,-0.047l-0.069,-0.06l-0.092,-0.088l-0.084,-0.097l-0.074,-0.104l-0.064,-0.111l-0.053,-0.116l-0.041,-0.121l-0.03,-0.125l-0.009,-0.064l-0.049,-0.083l-0.033,-0.059l-0.039,-0.071l-0.043,-0.082l-0.045,-0.096l-0.043,-0.1l-0.026,-0.066l-0.022,-0.063l-0.021,-0.067l-0.02,-0.069l-0.018,-0.073l-0.014,-0.068l-0.016,-0.088l-0.014,-0.083l-0.024,-0.154l-0.021,-0.156l-0.018,-0.153l-0.016,-0.152l-0.014,-0.149l-0.012,-0.147l-0.011,-0.145l-0.02,-0.279l-0.019,-0.274l-0.01,-0.13l-0.01,-0.129l-0.012,-0.125l-0.013,-0.131l-0.012,-0.125l-0.012,-0.132l-0.01,-0.129l-0.009,-0.129l-0.014,-0.245l-0.012,-0.238l-0.012,-0.228l-0.013,-0.222l-0.007,-0.104l-0.008,-0.103l-0.008,-0.101l-0.007,-0.068l-0.006,-0.017l-0.009,-0.027l-0.033,-0.093l-0.041,-0.117l-0.026,-0.08l-0.027,-0.087l-0.026,-0.099l-0.025,-0.11l-0.019,-0.112l-0.01,-0.074l-0.005,-0.053l-0.012,-0.131l-0.012,-0.118l-0.014,-0.118l-0.015,-0.12l-0.017,-0.121l-0.018,-0.123l-0.019,-0.123l-0.02,-0.125l-0.021,-0.126l-0.022,-0.126l-0.046,-0.26l-0.049,-0.263l-0.05,-0.267l-0.05,-0.273l-0.049,-0.275l-0.025,-0.142l-0.023,-0.142l-0.023,-0.143l-0.022,-0.145l-0.021,-0.146l-0.02,-0.147l-0.019,-0.148l-0.017,-0.15l-0.015,-0.151l-0.014,-0.153l-0.011,-0.153l-0.009,-0.144l-0.007,-0.121l-0.01,-0.111l-0.011,-0.111l-0.013,-0.112l-0.016,-0.112l-0.017,-0.114l-0.02,-0.113l-0.021,-0.115l-0.024,-0.115l-0.025,-0.117l-0.027,-0.116l-0.029,-0.118l-0.031,-0.118l-0.032,-0.119l-0.035,-0.12l-0.035,-0.12l-0.038,-0.122l-0.038,-0.121l-0.041,-0.123l-0.041,-0.123l-0.043,-0.124l-0.044,-0.124l-0.045,-0.126l-0.046,-0.124l-0.097,-0.255l-0.099,-0.257l-0.103,-0.258l-0.104,-0.261l-0.215,-0.531l-0.108,-0.269l-0.108,-0.271l-0.108,-0.275l-0.105,-0.275l-0.053,-0.142l-0.051,-0.14l-0.051,-0.142l-0.05,-0.142l-0.049,-0.143l-0.048,-0.144l-0.047,-0.144l-0.046,-0.146l-0.045,-0.146l-0.043,-0.148l-0.042,-0.148l-0.04,-0.149l-0.039,-0.15l-0.036,-0.151l-0.035,-0.153l-0.033,-0.153l-0.03,-0.154l-0.029,-0.155l-0.026,-0.157l-0.022,-0.153l-0.081,-0.586l-0.078,-0.579l-0.076,-0.577l-0.074,-0.574l-0.074,-0.572l-0.075,-0.57l-0.076,-0.569l-0.079,-0.573l-0.013,-0.097l-0.013,-0.103l-0.011,-0.101l-0.011,-0.101l-0.009,-0.1l-0.008,-0.101l-0.014,-0.191l-0.012,-0.19l-0.009,-0.187l-0.015,-0.357l-0.015,-0.347l-0.009,-0.165l-0.009,-0.161l-0.012,-0.16l-0.006,-0.075l-0.007,-0.076l-0.008,-0.075l-0.008,-0.074l-0.009,-0.074l-0.009,-0.069l-0.003,-0.015l-0.001,-0.007l-0.008,-0.039l-0.009,-0.039l-0.012,-0.044l-0.015,-0.051l-0.018,-0.056l-0.02,-0.061l-0.023,-0.064l-0.054,-0.149l-0.059,-0.159l-0.032,-0.089l-0.033,-0.092l-0.033,-0.097l-0.03,-0.093l-0.085,-0.273l-0.085,-0.268l-0.087,-0.27l-0.089,-0.272l-0.18,-0.552l-0.181,-0.554l-0.09,-0.28l-0.089,-0.279l-0.088,-0.28l-0.087,-0.279l-0.084,-0.28l-0.082,-0.278l-0.08,-0.278l-0.074,-0.27l-0.028,-0.125l-0.016,-0.127l-0.004,-0.128l0.008,-0.127l0.02,-0.126l0.032,-0.124l0.044,-0.12l0.055,-0.116l0.066,-0.11l0.076,-0.103l0.085,-0.095l0.094,-0.087l0.102,-0.077l0.109,-0.067l0.114,-0.057l0.12,-0.046l0.123,-0.034l0.126,-0.022l0.128,-0.01l0.127,0.002Z"/>
  <path d="M13.796,16.01l0.102,0.015l0.1,0.022l0.099,0.03l0.096,0.037l0.093,0.044l0.089,0.052l0.085,0.058l0.08,0.064l0.075,0.071l0.07,0.076l0.063,0.081l0.057,0.086l0.051,0.089l0.043,0.094l0.036,0.096l0.028,0.099l0.021,0.101l0.014,0.102l0.005,0.103l0,0.023l0.001,0.008l0.003,0.029l0.005,0.03l0.006,0.037l0.01,0.044l0.011,0.051l0.014,0.055l0.036,0.138l0.04,0.153l0.023,0.088l0.022,0.094l0.022,0.1l0.019,0.094l0.04,0.217l0.04,0.206l0.042,0.207l0.043,0.208l0.045,0.208l0.045,0.209l0.095,0.423l0.194,0.857l0.097,0.434l0.048,0.221l0.048,0.225l0.025,0.122l0.023,0.126l0.022,0.125l0.019,0.124l0.018,0.123l0.017,0.122l0.015,0.122l0.013,0.12l0.012,0.119l0.012,0.119l0.01,0.117l0.009,0.119l0.016,0.228l0.013,0.226l0.011,0.222l0.011,0.218l0.01,0.214l0.011,0.21l0.011,0.206l0.013,0.202l0.016,0.2l0.008,0.095l0.009,0.094l0.011,0.102l0.012,0.1l0.014,0.101l0.016,0.102l0.016,0.102l0.019,0.104l0.019,0.105l0.021,0.105l0.023,0.106l0.023,0.107l0.025,0.107l0.026,0.109l0.027,0.109l0.027,0.108l0.059,0.224l0.061,0.224l0.064,0.227l0.067,0.23l0.067,0.232l0.137,0.47l0.068,0.24l0.068,0.243l0.019,0.072l0.019,0.077l0.033,0.141l0.029,0.143l0.027,0.14l0.023,0.138l0.021,0.136l0.02,0.132l0.018,0.131l0.032,0.247l0.03,0.238l0.014,0.112l0.015,0.108l0.016,0.103l0.017,0.107l0.043,0.267l0.041,0.274l0.039,0.272l0.038,0.271l0.072,0.534l0.036,0.264l0.037,0.26l0.037,0.257l0.04,0.255l0.02,0.123l0.021,0.124l0.022,0.123l0.022,0.121l0.023,0.121l0.024,0.119l0.025,0.117l0.025,0.117l0.026,0.115l0.028,0.113l0.028,0.112l0.03,0.113l0.046,0.166l0.048,0.167l0.049,0.166l0.024,0.078l0.025,0.078l0.025,0.077l0.025,0.076l0.026,0.074l0.027,0.072l0.026,0.069l0.027,0.068l0.027,0.066l0.029,0.067l0.052,0.115l0.052,0.115l0.052,0.11l0.051,0.103l0.051,0.1l0.045,0.088l0.034,0.072l0.016,0.041l0.031,0.083l0.025,0.086l0.019,0.086l0.014,0.088l0,0.002l0.008,0.103l0.001,0.103l-0.008,0.103l-0.015,0.102l-0.023,0.101l-0.031,0.098l-0.038,0.096l-0.046,0.093l-0.052,0.088l-0.059,0.085l-0.066,0.08l-0.071,0.074l-0.077,0.069l-0.082,0.063l-0.086,0.056l-0.091,0.05l-0.094,0.042l-0.097,0.035l-0.099,0.028l-0.102,0.019l-0.102,0.012l-0.103,0.004l-0.103,-0.003l-0.103,-0.012l-0.067,-0.01l-0.091,-0.019l-0.075,-0.018l-0.062,-0.017l-0.074,-0.022l-0.018,-0.005l-0.021,-0.005l-0.099,-0.031l-0.096,-0.037l-0.092,-0.045l-0.089,-0.052l-0.085,-0.058l-0.08,-0.065l-0.075,-0.07l-0.069,-0.076l-0.064,-0.082l-0.056,-0.086l-0.051,-0.09l-0.043,-0.093l-0.035,-0.097l-0.029,-0.099l-0.02,-0.1l-0.013,-0.103l-0.005,-0.102l0.003,-0.103l0.009,-0.088l-0.009,-0.022l-0.044,-0.106l-0.042,-0.105l-0.039,-0.104l-0.038,-0.104l-0.037,-0.103l-0.034,-0.103l-0.034,-0.102l-0.032,-0.101l-0.031,-0.102l-0.058,-0.194l-0.054,-0.192l-0.052,-0.188l-0.038,-0.14l-0.036,-0.143l-0.034,-0.142l-0.033,-0.143l-0.031,-0.142l-0.03,-0.142l-0.028,-0.141l-0.027,-0.142l-0.026,-0.141l-0.025,-0.14l-0.023,-0.14l-0.023,-0.142l-0.043,-0.276l-0.041,-0.276l-0.038,-0.273l-0.038,-0.271l-0.072,-0.532l-0.036,-0.26l-0.036,-0.256l-0.038,-0.252l-0.041,-0.255l-0.02,-0.125l-0.02,-0.131l-0.017,-0.129l-0.017,-0.126l-0.031,-0.242l-0.03,-0.234l-0.015,-0.109l-0.015,-0.107l-0.016,-0.102l-0.017,-0.098l-0.018,-0.094l-0.018,-0.088l-0.02,-0.087l-0.009,-0.036l-0.011,-0.04l-0.06,-0.219l-0.064,-0.223l-0.135,-0.462l-0.068,-0.236l-0.069,-0.24l-0.069,-0.244l-0.068,-0.248l-0.066,-0.249l-0.032,-0.129l-0.032,-0.128l-0.031,-0.129l-0.029,-0.13l-0.029,-0.131l-0.028,-0.132l-0.026,-0.133l-0.026,-0.134l-0.023,-0.134l-0.023,-0.136l-0.02,-0.137l-0.019,-0.138l-0.017,-0.139l-0.015,-0.137l-0.012,-0.121l-0.01,-0.121l-0.018,-0.23l-0.015,-0.229l-0.012,-0.225l-0.011,-0.221l-0.011,-0.217l-0.01,-0.212l-0.011,-0.208l-0.012,-0.204l-0.014,-0.202l-0.007,-0.096l-0.009,-0.097l-0.009,-0.096l-0.009,-0.095l-0.011,-0.094l-0.011,-0.092l-0.013,-0.092l-0.013,-0.091l-0.014,-0.089l-0.015,-0.089l-0.017,-0.087l-0.018,-0.09l-0.044,-0.206l-0.045,-0.208l-0.095,-0.424l-0.194,-0.856l-0.097,-0.434l-0.048,-0.221l-0.047,-0.221l-0.046,-0.222l-0.045,-0.225l-0.044,-0.225l-0.04,-0.215l-0.01,-0.051l-0.01,-0.046l-0.013,-0.052l-0.015,-0.059l-0.037,-0.142l-0.042,-0.159l-0.023,-0.093l-0.022,-0.098l-0.022,-0.104l-0.021,-0.111l-0.018,-0.118l-0.013,-0.118l-0.006,-0.073l-0.005,-0.067l-0.002,-0.07l-0.001,-0.053l0.003,-0.103l0.01,-0.102l0.018,-0.102l0.026,-0.099l0.034,-0.098l0.041,-0.094l0.048,-0.091l0.055,-0.087l0.061,-0.083l0.067,-0.078l0.074,-0.072l0.078,-0.067l0.084,-0.06l0.088,-0.054l0.091,-0.047l0.095,-0.039l0.098,-0.033l0.1,-0.025l0.101,-0.017l0.103,-0.009l0.103,-0.001l0.103,0.006Z"/>
  <path d="M24.521,16.989l0.102,0.015l0.1,0.023l0.099,0.031l0.095,0.038l0.093,0.046l0.088,0.052l0.085,0.059l0.079,0.066l0.074,0.071l0.069,0.076l0.063,0.082l0.056,0.086l0.049,0.091l0.043,0.094l0.035,0.096l0.027,0.1l0.02,0.101l0.012,0.102l0.005,0.103l0,0.187l0.001,0.184l0.003,0.184l0.003,0.184l0.007,0.374l0.011,0.375l0.011,0.378l0.012,0.38l0.013,0.382l0.012,0.385l0.01,0.387l0.009,0.388l0.004,0.197l0.002,0.196l0.002,0.197l0.001,0.197l0,0.197l-0.001,0.199l-0.002,0.198l-0.004,0.2l-0.005,0.199l-0.006,0.201l-0.008,0.201l-0.01,0.204l-0.006,0.091l-0.007,0.094l-0.009,0.091l-0.01,0.09l-0.011,0.088l-0.012,0.087l-0.013,0.085l-0.014,0.087l-0.029,0.158l-0.03,0.156l-0.031,0.15l-0.03,0.143l-0.059,0.272l-0.026,0.126l-0.024,0.121l-0.021,0.12l-0.009,0.053l-0.008,0.054l-0.008,0.053l-0.006,0.052l-0.006,0.05l-0.005,0.053l-0.015,0.162l-0.013,0.166l-0.013,0.166l-0.012,0.166l-0.022,0.336l-0.02,0.338l-0.018,0.339l-0.017,0.341l-0.033,0.69l-0.017,0.348l-0.019,0.351l-0.02,0.353l-0.023,0.353l-0.013,0.18l-0.014,0.18l-0.015,0.179l-0.015,0.181l-0.017,0.181l-0.018,0.181l-0.02,0.183l-0.02,0.177l-0.027,0.241l-0.024,0.236l-0.022,0.239l-0.01,0.117l-0.009,0.118l-0.009,0.119l-0.007,0.118l-0.007,0.118l-0.006,0.118l-0.006,0.118l-0.004,0.118l-0.003,0.118l-0.003,0.117l-0.002,0.117l0,0.116l0,0.116l0.001,0.116l0.002,0.115l0.004,0.115l0.004,0.114l0.005,0.114l0.007,0.113l0.007,0.112l0.009,0.111l0.01,0.111l0.011,0.11l0.013,0.109l0.013,0.109l0.015,0.107l0.005,0.038l0.006,0.035l0.016,0.085l0.017,0.083l0.021,0.088l0.022,0.092l0.025,0.095l0.028,0.1l0.029,0.104l0.063,0.221l0.033,0.117l0.033,0.121l0.033,0.126l0.033,0.131l0.031,0.136l0.018,0.082l0.011,0.035l0.03,0.098l0.022,0.076l0.021,0.085l0.021,0.104l0.017,0.114l0.008,0.09l0.004,0.091l-0.003,0.107l-0.006,0.065l-0.008,0.064l-0.011,0.063l-0.002,0.013l-0.018,0.078l-0.022,0.077l-0.004,0.012l-0.035,0.094l-0.041,0.092l-0.005,0.01l-0.039,0.072l-0.043,0.07l-0.047,0.066l-0.006,0.009l-0.06,0.073l-0.064,0.069l-0.069,0.065l-0.008,0.007l-0.079,0.063l-0.083,0.057l-0.086,0.05l-0.01,0.006l-0.087,0.042l-0.09,0.036l-0.092,0.03l-0.011,0.003l-0.083,0.021l-0.085,0.015l-0.085,0.01l-0.013,0.001l-0.102,0.004l-0.103,-0.003l-0.103,-0.011l-0.101,-0.019l-0.099,-0.027l-0.097,-0.034l-0.095,-0.041l-0.09,-0.049l-0.087,-0.055l-0.083,-0.062l-0.077,-0.068l-0.072,-0.074l-0.066,-0.079l-0.06,-0.084l-0.053,-0.088l-0.046,-0.092l-0.039,-0.095l-0.032,-0.098l-0.024,-0.1l-0.016,-0.102l-0.009,-0.102l-0.001,-0.103l0.007,-0.099l-0.008,-0.032l-0.025,-0.12l-0.02,-0.088l-0.023,-0.092l-0.026,-0.096l-0.027,-0.101l-0.03,-0.104l-0.063,-0.221l-0.033,-0.118l-0.033,-0.122l-0.033,-0.126l-0.033,-0.131l-0.031,-0.136l-0.03,-0.141l-0.026,-0.142l-0.013,-0.079l-0.011,-0.076l-0.019,-0.14l-0.018,-0.141l-0.016,-0.14l-0.014,-0.14l-0.012,-0.14l-0.011,-0.141l-0.01,-0.14l-0.008,-0.14l-0.007,-0.14l-0.005,-0.139l-0.004,-0.14l-0.003,-0.139l-0.001,-0.14l-0.001,-0.139l0.001,-0.138l0.002,-0.139l0.003,-0.138l0.005,-0.137l0.005,-0.138l0.006,-0.137l0.007,-0.136l0.008,-0.137l0.009,-0.135l0.009,-0.135l0.011,-0.135l0.011,-0.136l0.024,-0.264l0.028,-0.264l0.028,-0.256l0.02,-0.169l0.017,-0.163l0.016,-0.164l0.016,-0.164l0.014,-0.165l0.013,-0.165l0.013,-0.166l0.012,-0.165l0.022,-0.337l0.019,-0.336l0.018,-0.339l0.017,-0.342l0.033,-0.69l0.017,-0.349l0.019,-0.351l0.021,-0.353l0.023,-0.355l0.013,-0.18l0.014,-0.18l0.015,-0.181l0.016,-0.184l0.009,-0.088l0.01,-0.089l0.011,-0.088l0.013,-0.087l0.013,-0.085l0.014,-0.086l0.029,-0.158l0.03,-0.155l0.031,-0.15l0.06,-0.28l0.028,-0.133l0.026,-0.126l0.024,-0.121l0.021,-0.118l0.009,-0.053l0.008,-0.054l0.007,-0.053l0.007,-0.051l0.005,-0.05l0.005,-0.049l0.004,-0.048l0.003,-0.05l0.008,-0.175l0.008,-0.18l0.005,-0.18l0.005,-0.18l0.003,-0.182l0.002,-0.182l0.001,-0.182l0,-0.184l-0.001,-0.183l-0.001,-0.185l-0.003,-0.185l-0.003,-0.185l-0.009,-0.375l-0.01,-0.376l-0.012,-0.378l-0.012,-0.381l-0.013,-0.383l-0.011,-0.385l-0.011,-0.387l-0.008,-0.389l-0.003,-0.196l-0.002,-0.196l-0.002,-0.197l0,-0.193l0.003,-0.103l0.012,-0.102l0.019,-0.102l0.027,-0.099l0.035,-0.097l0.042,-0.094l0.048,-0.091l0.056,-0.086l0.062,-0.082l0.069,-0.077l0.074,-0.072l0.079,-0.066l0.084,-0.059l0.088,-0.053l0.093,-0.046l0.095,-0.038l0.098,-0.032l0.1,-0.024l0.102,-0.016l0.103,-0.008l0.103,0l0.102,0.008Zm-0.867,20.22l-0.024,0.013l0.073,-0.027l-0.049,0.014Zm0.254,-0.071l-0.069,0.019l0.082,-0.017l0.102,-0.012l-0.115,0.01Z"/>
  <path d="M35.78,17.491l0.107,0.015l0.106,0.023l0.103,0.031l0.101,0.04l0.097,0.047l0.093,0.056l0.089,0.062l0.083,0.07l0.077,0.076l0.07,0.082l0.064,0.087l0.057,0.092l0.049,0.097l0.041,0.1l0.033,0.103l0.025,0.105l0.016,0.107l0.007,0.108l-0.001,0.109l-0.002,0.029l-0.004,0.062l-0.008,0.062l-0.012,0.081l-0.028,0.125l-0.032,0.108l-0.034,0.097l-0.035,0.087l-0.035,0.079l-0.036,0.073l-0.035,0.068l-0.035,0.064l-0.035,0.061l-0.036,0.061l-0.064,0.105l-0.064,0.1l-0.114,0.173l-0.048,0.074l-0.038,0.06l-0.03,0.05l-0.001,0.001l-0.03,0.09l-0.051,0.143l-0.053,0.14l-0.053,0.139l-0.054,0.137l-0.056,0.135l-0.056,0.133l-0.056,0.132l-0.057,0.13l-0.058,0.13l-0.113,0.252l-0.225,0.49l-0.109,0.239l-0.105,0.236l-0.05,0.114l-0.05,0.115l-0.048,0.114l-0.047,0.114l-0.045,0.112l-0.043,0.112l-0.042,0.111l-0.04,0.111l-0.038,0.109l-0.036,0.11l-0.034,0.108l-0.032,0.11l-0.011,0.041l-0.011,0.039l-0.023,0.094l-0.021,0.095l-0.02,0.099l-0.019,0.104l-0.019,0.109l-0.019,0.113l-0.019,0.118l-0.038,0.247l-0.021,0.129l-0.022,0.133l-0.023,0.136l-0.026,0.14l-0.029,0.143l-0.031,0.141l-0.098,0.42l-0.099,0.414l-0.101,0.412l-0.101,0.41l-0.202,0.814l-0.101,0.405l-0.099,0.404l-0.098,0.403l-0.096,0.401l-0.094,0.402l-0.045,0.199l-0.045,0.2l-0.044,0.2l-0.043,0.199l-0.043,0.199l-0.041,0.2l-0.04,0.199l-0.039,0.199l-0.038,0.199l-0.036,0.195l-0.024,0.138l-0.021,0.135l-0.019,0.138l-0.017,0.139l-0.015,0.141l-0.014,0.143l-0.012,0.145l-0.011,0.147l-0.009,0.148l-0.008,0.151l-0.008,0.152l-0.006,0.152l-0.011,0.315l-0.01,0.318l-0.01,0.326l-0.012,0.329l-0.006,0.168l-0.008,0.169l-0.009,0.171l-0.011,0.172l-0.012,0.173l-0.014,0.175l-0.016,0.175l-0.019,0.177l-0.021,0.179l-0.024,0.179l-0.027,0.181l-0.03,0.18l-0.014,0.077l-0.015,0.075l-0.016,0.074l-0.017,0.074l-0.018,0.073l-0.018,0.072l-0.02,0.071l-0.021,0.075l-0.042,0.134l-0.045,0.135l-0.049,0.132l-0.05,0.129l-0.052,0.126l-0.054,0.123l-0.055,0.12l-0.056,0.117l-0.058,0.114l-0.057,0.111l-0.059,0.109l-0.058,0.107l-0.058,0.104l-0.06,0.103l-0.114,0.196l-0.221,0.372l-0.105,0.179l-0.048,0.085l-0.049,0.085l-0.046,0.084l-0.045,0.083l-0.042,0.081l-0.046,0.089l-0.053,0.095l-0.06,0.09l-0.068,0.084l-0.074,0.079l-0.08,0.073l-0.085,0.066l-0.091,0.059l-0.095,0.052l-0.099,0.043l-0.103,0.036l-0.104,0.027l-0.107,0.019l-0.108,0.01l-0.108,0.001l-0.108,-0.007l-0.107,-0.016l-0.105,-0.025l-0.103,-0.033l-0.101,-0.041l-0.096,-0.049l-0.092,-0.057l-0.088,-0.063l-0.082,-0.071l-0.075,-0.077l-0.07,-0.083l-0.063,-0.089l-0.055,-0.093l-0.047,-0.097l-0.04,-0.101l-0.032,-0.103l-0.023,-0.106l-0.014,-0.107l-0.006,-0.108l0.003,-0.108l0.012,-0.108l0.02,-0.106l0.029,-0.105l0.037,-0.101l0.045,-0.099l0.054,-0.105l0.058,-0.111l0.059,-0.109l0.059,-0.106l0.059,-0.104l0.059,-0.103l0.114,-0.194l0.22,-0.37l0.103,-0.177l0.048,-0.084l0.047,-0.084l0.045,-0.082l0.043,-0.081l0.041,-0.08l0.04,-0.078l0.037,-0.077l0.035,-0.077l0.033,-0.075l0.031,-0.075l0.029,-0.074l0.027,-0.073l0.024,-0.073l0.024,-0.077l0.009,-0.032l0.01,-0.036l0.01,-0.037l0.009,-0.036l0.008,-0.036l0.008,-0.037l0.007,-0.036l0.007,-0.036l0.022,-0.136l0.021,-0.137l0.018,-0.138l0.017,-0.14l0.015,-0.142l0.013,-0.144l0.012,-0.146l0.01,-0.147l0.009,-0.149l0.008,-0.151l0.007,-0.153l0.006,-0.153l0.011,-0.315l0.01,-0.32l0.01,-0.326l0.012,-0.329l0.007,-0.17l0.008,-0.169l0.01,-0.171l0.011,-0.172l0.012,-0.173l0.015,-0.175l0.016,-0.175l0.02,-0.178l0.021,-0.178l0.025,-0.179l0.028,-0.181l0.03,-0.177l0.041,-0.219l0.041,-0.213l0.042,-0.214l0.043,-0.212l0.043,-0.212l0.045,-0.211l0.046,-0.211l0.046,-0.21l0.047,-0.209l0.048,-0.21l0.097,-0.414l0.099,-0.414l0.1,-0.412l0.101,-0.41l0.101,-0.408l0.202,-0.812l0.1,-0.404l0.098,-0.403l0.096,-0.402l0.093,-0.396l0.022,-0.1l0.02,-0.099l0.019,-0.105l0.019,-0.109l0.019,-0.113l0.018,-0.118l0.039,-0.248l0.02,-0.129l0.022,-0.134l0.024,-0.137l0.027,-0.14l0.029,-0.144l0.032,-0.147l0.036,-0.146l0.021,-0.08l0.022,-0.077l0.044,-0.151l0.047,-0.15l0.049,-0.147l0.05,-0.145l0.052,-0.144l0.053,-0.141l0.054,-0.139l0.055,-0.138l0.056,-0.135l0.056,-0.134l0.057,-0.132l0.058,-0.132l0.114,-0.254l0.113,-0.25l0.223,-0.486l0.107,-0.237l0.051,-0.114l0.05,-0.115l0.049,-0.114l0.047,-0.113l0.046,-0.112l0.044,-0.111l0.042,-0.11l0.041,-0.109l0.039,-0.109l0.044,-0.131l0.028,-0.074l0.036,-0.086l0.036,-0.076l0.035,-0.069l0.034,-0.064l0.036,-0.063l0.063,-0.104l0.063,-0.1l0.059,-0.091l0.109,-0.165l0.044,-0.069l0.039,-0.064l0.011,-0.02l0.001,-0.005l0.028,-0.105l0.035,-0.102l0.044,-0.099l0.051,-0.095l0.059,-0.091l0.067,-0.086l0.072,-0.08l0.079,-0.074l0.085,-0.067l0.09,-0.06l0.094,-0.053l0.099,-0.046l0.101,-0.037l0.105,-0.028l0.106,-0.021l0.108,-0.011l0.108,-0.003l0.108,0.005Zm-1.466,1.234l-0.001,0.033l0.005,-0.058l-0.004,0.025Z"/>
  <path d="M2.759,4.061l0.061,0.005l0.061,0.008l0.06,0.01l0.06,0.014l0.059,0.016l0.058,0.018l0.058,0.022l0.056,0.024l0.055,0.026l0.054,0.029l0.052,0.031l0.052,0.034l0.049,0.036l0.048,0.038l0.046,0.041l0.044,0.042l0.042,0.045l0.04,0.046l0.038,0.048l0.035,0.05l0.034,0.051l0.031,0.053l0.028,0.054l0.026,0.055l0.024,0.057l0.021,0.057l0.018,0.059l0.016,0.059l0.013,0.06l0.01,0.06l0.007,0.061l0.005,0.061l0.002,0.061l-0.001,0.061l-0.004,0.061l-0.006,0.061l-0.01,0.06l-0.011,0.06l-0.015,0.06l-0.018,0.058l-0.02,0.058l-0.022,0.057l-0.008,0.016l0,0.004l-0.002,0.018l-0.003,0.023l-0.001,0.028l-0.002,0.032l-0.001,0.035l0,0.039l0.001,0.042l0.001,0.045l0.002,0.043l0.006,0.104l0.008,0.105l0.011,0.11l0.011,0.113l0.025,0.232l0.012,0.12l0.009,0.117l0.03,0.429l0.026,0.423l0.025,0.421l0.024,0.418l0.047,0.832l0.025,0.412l0.026,0.405l0.007,0.09l0.009,0.088l0.011,0.092l0.013,0.098l0.014,0.103l0.016,0.107l0.035,0.229l0.018,0.122l0.017,0.126l0.017,0.131l0.015,0.136l0.014,0.141l0.01,0.141l0.004,0.079l0.003,0.076l0.002,0.077l0,0.067l-0.001,0.062l-0.003,0.061l-0.007,0.06l-0.009,0.061l-0.012,0.06l-0.014,0.059l-0.018,0.059l-0.02,0.058l-0.022,0.057l-0.026,0.055l-0.027,0.055l-0.031,0.053l-0.032,0.052l-0.035,0.05l-0.037,0.049l-0.039,0.047l-0.042,0.045l-0.043,0.043l-0.046,0.041l-0.047,0.039l-0.049,0.037l-0.05,0.035l-0.052,0.032l-0.053,0.03l-0.055,0.027l-0.056,0.025l-0.057,0.022l-0.058,0.02l-0.059,0.017l-0.059,0.014l-0.06,0.012l-0.061,0.008l-0.061,0.006l-0.061,0.004l-0.061,0l-0.061,-0.002l-0.061,-0.005l-0.061,-0.008l-0.06,-0.01l-0.06,-0.014l-0.059,-0.016l-0.058,-0.019l-0.058,-0.021l-0.056,-0.024l-0.055,-0.026l-0.054,-0.029l-0.053,-0.032l-0.051,-0.033l-0.049,-0.036l-0.048,-0.038l-0.046,-0.041l-0.044,-0.042l-0.042,-0.045l-0.04,-0.046l-0.038,-0.048l-0.036,-0.05l-0.033,-0.051l-0.031,-0.053l-0.029,-0.054l-0.026,-0.055l-0.023,-0.056l-0.021,-0.058l-0.019,-0.058l-0.015,-0.06l-0.013,-0.059l-0.011,-0.061l-0.007,-0.06l-0.005,-0.061l-0.002,-0.062l0,-0.046l-0.001,-0.036l-0.001,-0.037l-0.002,-0.035l-0.006,-0.086l-0.008,-0.086l-0.011,-0.091l-0.012,-0.097l-0.014,-0.101l-0.016,-0.106l-0.034,-0.227l-0.018,-0.12l-0.018,-0.125l-0.017,-0.129l-0.016,-0.135l-0.014,-0.139l-0.01,-0.138l-0.028,-0.429l-0.025,-0.422l-0.048,-0.836l-0.023,-0.416l-0.025,-0.412l-0.026,-0.411l-0.027,-0.403l-0.006,-0.076l-0.009,-0.089l-0.024,-0.226l-0.014,-0.131l-0.013,-0.141l-0.012,-0.15l-0.009,-0.153l-0.003,-0.085l-0.003,-0.084l-0.001,-0.086l0,-0.087l0.003,-0.089l0.004,-0.092l0.006,-0.094l0.009,-0.096l0.012,-0.099l0.016,-0.101l0.02,-0.105l0.025,-0.107l0.031,-0.112l0.038,-0.114l0.042,-0.109l0.031,-0.068l0.019,-0.042l0.028,-0.054l0.03,-0.053l0.033,-0.052l0.035,-0.05l0.037,-0.049l0.039,-0.047l0.042,-0.045l0.043,-0.043l0.045,-0.041l0.048,-0.039l0.048,-0.037l0.051,-0.034l0.052,-0.033l0.053,-0.029l0.055,-0.028l0.056,-0.025l0.057,-0.022l0.058,-0.019l0.059,-0.017l0.059,-0.015l0.06,-0.011l0.061,-0.009l0.061,-0.006l0.061,-0.003l0.061,-0.001l0.061,0.003Z"/>
  <path d="M7.936,4.139l0.152,0.001l0.151,0.004l0.149,0.005l0.149,0.006l0.146,0.007l0.146,0.008l0.283,0.017l0.547,0.035l0.261,0.015l0.124,0.007l0.123,0.005l0.12,0.005l0.117,0.003l0.113,0.002l0.117,0.001l0.333,0.001l0.34,0.003l0.338,0.005l0.338,0.006l0.338,0.008l0.336,0.009l0.336,0.01l0.336,0.012l0.335,0.012l0.335,0.013l0.666,0.029l0.665,0.031l0.663,0.031l0.661,0.032l0.659,0.03l0.658,0.028l0.328,0.013l0.328,0.012l0.327,0.011l0.327,0.011l0.327,0.008l0.327,0.008l0.326,0.006l0.326,0.004l0.325,0.003l0.331,0.001l0.114,0.001l0.121,0.001l0.233,0.005l0.234,0.008l0.232,0.009l0.454,0.02l0.222,0.009l0.219,0.009l0.216,0.006l0.104,0.002l0.104,0.001l0.103,0.001l0.101,0l0.1,-0.001l0.099,-0.002l0.096,-0.003l0.095,-0.004l0.093,-0.005l0.091,-0.007l0.089,-0.007l0.087,-0.009l0.085,-0.009l0.093,-0.013l0.161,-0.022l0.171,-0.022l0.171,-0.02l0.17,-0.018l0.17,-0.017l0.17,-0.016l0.169,-0.014l0.17,-0.012l0.168,-0.012l0.169,-0.01l0.168,-0.009l0.168,-0.008l0.168,-0.007l0.167,-0.006l0.167,-0.005l0.167,-0.005l0.331,-0.006l0.33,-0.004l0.328,-0.002l0.328,-0.001l0.647,0.001l0.641,0.001l0.236,-0.001l0.237,-0.002l0.486,-0.006l0.494,-0.007l0.252,-0.003l0.253,-0.001l0.256,0.001l0.258,0.003l0.258,0.005l0.133,0.004l0.131,0.005l0.132,0.006l0.132,0.006l0.132,0.008l0.133,0.009l0.133,0.01l0.133,0.012l0.134,0.012l0.129,0.014l0.124,0.013l0.117,0.012l0.241,0.023l0.241,0.019l0.242,0.018l0.244,0.015l0.246,0.014l0.248,0.012l0.249,0.01l0.25,0.009l0.252,0.008l0.254,0.008l0.254,0.006l1.032,0.024l0.52,0.014l0.264,0.008l0.263,0.009l0.265,0.011l0.265,0.012l0.266,0.014l0.267,0.017l0.268,0.019l0.268,0.021l0.267,0.024l0.137,0.014l0.135,0.014l0.135,0.015l0.135,0.016l0.136,0.017l0.135,0.018l0.136,0.019l0.135,0.02l0.136,0.021l0.127,0.02l0.061,0.01l0.054,0.007l0.057,0.007l0.059,0.006l0.062,0.006l0.064,0.004l0.066,0.004l0.068,0.004l0.069,0.002l0.069,0.002l0.15,0.002l0.153,0l0.157,-0.002l0.162,-0.004l0.164,-0.005l0.338,-0.011l0.172,-0.006l0.174,-0.004l0.175,-0.004l0.162,-0.001l0.096,-0.001l0.092,-0.003l0.102,-0.005l0.11,-0.006l0.119,-0.006l0.127,-0.006l0.135,-0.005l0.133,-0.001l0.413,0l0.15,0.008l0.149,0.025l0.145,0.042l0.139,0.058l0.132,0.073l0.123,0.087l0.112,0.1l0.101,0.113l0.087,0.123l0.073,0.131l0.057,0.14l0.042,0.145l0.025,0.148l0.009,0.151l-0.009,0.15l-0.025,0.149l-0.042,0.144l-0.057,0.14l-0.073,0.132l-0.087,0.123l-0.101,0.112l-0.112,0.1l-0.123,0.088l-0.132,0.072l-0.139,0.058l-0.145,0.042l-0.149,0.025l-0.15,0.009l-0.396,0l-0.086,0.001l-0.089,0.003l-0.101,0.005l-0.111,0.005l-0.12,0.007l-0.129,0.006l-0.137,0.005l-0.132,0.001l-0.154,0.001l-0.148,0.003l-0.156,0.004l-0.163,0.005l-0.341,0.012l-0.179,0.005l-0.182,0.004l-0.187,0.003l-0.189,0l-0.19,-0.002l-0.1,-0.003l-0.098,-0.004l-0.099,-0.005l-0.099,-0.006l-0.1,-0.007l-0.101,-0.009l-0.101,-0.01l-0.102,-0.012l-0.103,-0.015l-0.094,-0.014l-0.124,-0.02l-0.115,-0.018l-0.116,-0.017l-0.116,-0.016l-0.117,-0.016l-0.117,-0.014l-0.118,-0.014l-0.118,-0.013l-0.118,-0.013l-0.118,-0.012l-0.241,-0.022l-0.242,-0.019l-0.243,-0.017l-0.244,-0.015l-0.246,-0.013l-0.248,-0.012l-0.25,-0.01l-0.25,-0.009l-0.252,-0.007l-0.51,-0.014l-1.031,-0.024l-0.261,-0.006l-0.261,-0.008l-0.263,-0.008l-0.264,-0.01l-0.265,-0.011l-0.265,-0.013l-0.266,-0.014l-0.267,-0.017l-0.268,-0.019l-0.269,-0.023l-0.267,-0.024l-0.137,-0.014l-0.129,-0.014l-0.112,-0.012l-0.107,-0.01l-0.108,-0.01l-0.108,-0.008l-0.11,-0.007l-0.111,-0.007l-0.111,-0.005l-0.112,-0.005l-0.113,-0.004l-0.112,-0.004l-0.232,-0.005l-0.233,-0.002l-0.235,-0.001l-0.238,0.001l-0.24,0.003l-0.489,0.006l-0.492,0.007l-0.251,0.002l-0.25,0.001l-0.647,-0.001l-0.642,-0.001l-0.317,0l-0.314,0.003l-0.313,0.004l-0.312,0.006l-0.152,0.004l-0.154,0.004l-0.153,0.006l-0.152,0.006l-0.152,0.008l-0.151,0.008l-0.15,0.009l-0.149,0.01l-0.149,0.011l-0.149,0.012l-0.147,0.014l-0.147,0.014l-0.146,0.016l-0.146,0.017l-0.144,0.019l-0.154,0.021l-0.121,0.016l-0.131,0.015l-0.13,0.013l-0.129,0.011l-0.129,0.009l-0.128,0.007l-0.127,0.005l-0.127,0.004l-0.126,0.003l-0.125,0.001l-0.124,0l-0.124,-0.001l-0.122,-0.001l-0.124,-0.003l-0.238,-0.007l-0.237,-0.009l-0.232,-0.009l-0.451,-0.02l-0.216,-0.009l-0.211,-0.007l-0.205,-0.004l-0.097,-0.002l-0.102,0l-0.336,-0.001l-0.34,-0.003l-0.339,-0.004l-0.339,-0.007l-0.338,-0.007l-0.337,-0.01l-0.337,-0.01l-0.336,-0.011l-0.335,-0.013l-0.336,-0.013l-0.666,-0.029l-0.666,-0.03l-0.663,-0.032l-0.661,-0.031l-0.658,-0.031l-0.658,-0.028l-0.328,-0.013l-0.327,-0.012l-0.327,-0.011l-0.327,-0.01l-0.326,-0.009l-0.326,-0.008l-0.325,-0.006l-0.325,-0.004l-0.325,-0.003l-0.331,-0.001l-0.138,-0.001l-0.143,-0.002l-0.143,-0.005l-0.143,-0.005l-0.141,-0.007l-0.143,-0.007l-0.277,-0.016l-0.547,-0.036l-0.269,-0.016l-0.13,-0.007l-0.129,-0.006l-0.128,-0.005l-0.126,-0.004l-0.124,-0.003l-0.122,-0.001l-0.12,-0.001l-0.117,0.002l-0.115,0.003l-0.112,0.005l-0.109,0.007l-0.106,0.008l-0.106,0.011l-0.047,0.005l-0.049,0.007l-0.048,0.007l-0.048,0.007l-0.047,0.008l-0.045,0.008l-0.045,0.009l-0.044,0.009l-0.043,0.01l-0.051,0.012l-0.074,0.018l-0.084,0.019l-0.083,0.018l-0.082,0.016l-0.082,0.016l-0.081,0.014l-0.08,0.013l-0.084,0.012l-0.153,0.02l-0.155,0.017l-0.152,0.013l-0.149,0.01l-0.147,0.008l-0.144,0.005l-0.141,0.004l-0.14,0.002l-0.137,0.001l-0.136,0l-0.256,0l-0.058,0.001l-0.096,0.003l-0.128,0.003l-0.141,0.001l-0.083,0l-0.084,-0.002l-0.092,-0.005l-0.109,-0.01l-0.125,-0.019l-0.11,-0.025l-0.059,-0.018l-0.137,-0.05l-0.01,-0.004l-0.105,-0.05l-0.099,-0.058l-0.008,-0.005l-0.104,-0.075l-0.097,-0.085l-0.088,-0.093l-0.004,-0.006l-0.088,-0.114l-0.076,-0.124l-0.061,-0.13l-0.001,-0.003l-0.039,-0.108l-0.029,-0.111l-0.02,-0.113l0,-0.003l-0.011,-0.15l0.005,-0.151l0.023,-0.149l0.039,-0.146l0.055,-0.14l0.071,-0.133l0.085,-0.124l0.098,-0.115l0.111,-0.102l0.121,-0.089l0.131,-0.076l0.138,-0.06l0.144,-0.044l0.148,-0.028l0.15,-0.011l0.151,0.006l0.149,0.022l0.048,0.013l0.067,-0.001l0.104,-0.002l0.107,-0.003l0.094,-0.002l0.275,0l0.125,0l0.12,-0.001l0.116,-0.002l0.113,-0.003l0.108,-0.004l0.106,-0.005l0.102,-0.007l0.1,-0.009l0.098,-0.01l0.1,-0.013l0.044,-0.007l0.047,-0.008l0.048,-0.008l0.047,-0.009l0.048,-0.009l0.047,-0.01l0.048,-0.011l0.058,-0.014l0.072,-0.018l0.082,-0.018l0.082,-0.018l0.082,-0.016l0.081,-0.014l0.082,-0.014l0.081,-0.012l0.081,-0.012l0.08,-0.01l0.084,-0.01l0.157,-0.016l0.159,-0.013l0.158,-0.01l0.157,-0.006l0.156,-0.005l0.155,-0.002l0.154,0.001Zm-3.044,1.311l0.028,0.148l-0.022,-0.168l-0.05,-0.123l0.044,0.143Zm-0.046,-0.148l-0.012,-0.029l-0.003,-0.005l0.015,0.034Z"/>
  <path d="M46.591,6.149l0.061,0.005l0.06,0.009l0.061,0.011l0.059,0.013l0.059,0.017l0.058,0.019l0.058,0.022l0.056,0.024l0.055,0.027l0.054,0.029l0.052,0.032l0.051,0.034l0.049,0.037l0.048,0.038l0.046,0.041l0.043,0.043l0.042,0.044l0.04,0.047l0.038,0.048l0.035,0.05l0.033,0.052l0.031,0.053l0.028,0.054l0.026,0.056l0.023,0.057l0.02,0.057l0.018,0.059l0.015,0.059l0.013,0.06l0.01,0.061l0.006,0.061l0.005,0.061l0.001,0.062l-0.001,0.061l-0.005,0.061l-0.006,0.061l-0.01,0.06l-0.013,0.06l-0.015,0.059l-0.018,0.059l-0.02,0.057l-0.023,0.057l-0.026,0.056l-0.014,0.027l-0.001,0.002l-0.019,0.043l-0.025,0.059l-0.025,0.062l-0.01,0.092l-0.023,0.194l-0.022,0.182l-0.021,0.175l-0.008,0.081l-0.008,0.079l-0.007,0.077l-0.006,0.075l-0.005,0.073l-0.003,0.071l-0.002,0.07l-0.001,0.081l-0.001,0.158l-0.005,0.171l-0.007,0.172l-0.01,0.17l-0.013,0.17l-0.014,0.17l-0.017,0.169l-0.019,0.168l-0.021,0.166l-0.023,0.166l-0.024,0.165l-0.026,0.163l-0.027,0.161l-0.028,0.159l-0.03,0.158l-0.032,0.162l-0.016,0.078l-0.02,0.081l-0.021,0.078l-0.022,0.076l-0.023,0.072l-0.023,0.07l-0.023,0.067l-0.025,0.067l-0.046,0.116l-0.045,0.111l-0.081,0.19l-0.035,0.083l-0.03,0.073l-0.026,0.069l-0.009,0.025l-0.009,0.027l-0.008,0.024l-0.007,0.021l-0.005,0.02l-0.005,0.017l-0.003,0.015l-0.003,0.013l-0.001,0.01l-0.002,0.01l-0.002,0.017l-0.005,0.053l-0.015,0.168l-0.011,0.106l-0.012,0.116l-0.015,0.123l-0.018,0.13l-0.021,0.13l-0.013,0.073l-0.014,0.072l-0.016,0.074l-0.018,0.076l-0.022,0.081l-0.027,0.087l-0.033,0.094l-0.044,0.107l-0.034,0.069l-0.029,0.054l-0.031,0.054l-0.014,0.023l-0.033,0.05l-0.035,0.049l-0.037,0.05l-0.079,0.09l-0.05,0.049l-0.033,0.031l-0.035,0.03l-0.036,0.029l-0.008,0.007l-0.043,0.032l-0.045,0.031l-0.046,0.029l-0.008,0.005l-0.04,0.023l-0.041,0.023l-0.042,0.02l-0.043,0.019l-0.008,0.004l-0.049,0.02l-0.049,0.017l-0.049,0.016l-0.05,0.014l-0.009,0.002l-0.054,0.013l-0.055,0.01l-0.055,0.008l-0.055,0.006l-0.009,0.001l-0.061,0.004l-0.061,0.001l-0.062,-0.002l-0.061,-0.005l-0.06,-0.007l-0.061,-0.01l-0.059,-0.013l-0.06,-0.016l-0.058,-0.018l-0.058,-0.021l-0.056,-0.023l-0.055,-0.026l-0.055,-0.029l-0.052,-0.031l-0.052,-0.033l-0.049,-0.036l-0.048,-0.038l-0.047,-0.04l-0.044,-0.042l-0.043,-0.044l-0.04,-0.046l-0.038,-0.048l-0.036,-0.049l-0.034,-0.051l-0.032,-0.053l-0.029,-0.053l-0.026,-0.056l-0.024,-0.056l-0.022,-0.057l-0.018,-0.058l-0.016,-0.059l-0.014,-0.06l-0.01,-0.06l-0.008,-0.061l-0.005,-0.061l-0.003,-0.061l0.001,-0.061l0.003,-0.062l0.006,-0.06l0.009,-0.061l0.011,-0.06l0.014,-0.06l0.017,-0.058l0.02,-0.058l0.022,-0.057l0.025,-0.056l0.027,-0.055l0.03,-0.054l0.023,-0.038l0.002,-0.008l0.011,-0.08l0.01,-0.085l0.009,-0.088l0.009,-0.086l0.015,-0.162l0.007,-0.075l0.009,-0.077l0.012,-0.091l0.016,-0.088l0.017,-0.086l0.019,-0.083l0.02,-0.079l0.022,-0.077l0.022,-0.074l0.023,-0.071l0.024,-0.069l0.025,-0.069l0.045,-0.118l0.046,-0.113l0.043,-0.102l0.077,-0.18l0.03,-0.074l0.028,-0.071l0.009,-0.026l0.01,-0.027l0.008,-0.025l0.007,-0.022l0.006,-0.021l0.005,-0.017l0.004,-0.016l0.004,-0.02l0.025,-0.127l0.025,-0.134l0.024,-0.136l0.023,-0.136l0.022,-0.136l0.02,-0.137l0.018,-0.136l0.017,-0.136l0.016,-0.136l0.013,-0.134l0.012,-0.134l0.01,-0.132l0.007,-0.13l0.006,-0.128l0.003,-0.126l0.001,-0.136l0.001,-0.109l0.004,-0.119l0.005,-0.116l0.008,-0.113l0.008,-0.11l0.01,-0.108l0.01,-0.104l0.011,-0.104l0.023,-0.192l0.023,-0.185l0.02,-0.175l0.023,-0.211l0.017,-0.111l0.028,-0.115l0.026,-0.092l0.026,-0.08l0.025,-0.072l0.027,-0.072l0.047,-0.118l0.046,-0.109l0.042,-0.094l0.039,-0.083l0.018,-0.035l0.023,-0.042l0.025,-0.042l0.026,-0.042l0.003,-0.003l0.035,-0.05l0.037,-0.048l0.04,-0.047l0.042,-0.045l0.043,-0.043l0.046,-0.041l0.047,-0.039l0.049,-0.036l0.051,-0.034l0.052,-0.032l0.054,-0.03l0.055,-0.027l0.056,-0.024l0.057,-0.022l0.058,-0.02l0.059,-0.016l0.06,-0.014l0.06,-0.012l0.061,-0.008l0.061,-0.006l0.061,-0.003l0.061,0l0.062,0.003Zm-1.887,7.203l-0.02,0.008l0.024,-0.008l0.028,-0.008l-0.032,0.008Zm0.2,-0.051l-0.062,0.016l0.044,-0.009l0.06,-0.009l0.061,-0.007l-0.103,0.009Zm2.72,-5.072l0.005,-0.009l0,0l-0.005,0.009Zm0.025,-0.04l-0.019,0.03l0,0l0.027,-0.04l0.019,-0.036l-0.027,0.046Z"/>
  <path d="M28.753,2.096l0.068,0.006l0.067,0.01l0.015,0.002l0.064,0.013l0.063,0.015l0.063,0.019l0.013,0.004l0.062,0.022l0.062,0.025l0.06,0.029l0.006,0.002l0.048,0.026l0.047,0.027l0.046,0.029l0.005,0.004l0.052,0.035l0.049,0.038l0.048,0.041l0.005,0.004l0.051,0.047l0.048,0.05l0.046,0.053l0.004,0.004l0.045,0.059l0.042,0.06l0.039,0.063l0.003,0.005l0.036,0.065l0.031,0.067l0.028,0.068l0.002,0.006l0.023,0.066l0.02,0.067l0.016,0.068l0.001,0.007l0.012,0.062l0.008,0.062l0.006,0.063l0,0.007l0.003,0.079l-0.002,0.078l-0.007,0.078l-0.011,0.078l-0.015,0.077l-0.02,0.076l-0.024,0.074l-0.029,0.073l-0.033,0.072l-0.037,0.069l-0.041,0.067l-0.045,0.064l-0.048,0.062l-0.052,0.059l-0.055,0.055l-0.059,0.053l-0.061,0.048l-0.064,0.046l-0.067,0.041l-0.069,0.037l-0.071,0.033l-0.073,0.03l-0.074,0.024l-0.076,0.021l-0.077,0.016l-0.078,0.011l-0.078,0.007l-0.078,0.002l-1.311,0l-0.319,0.002l-0.319,0.003l-0.323,0.006l-0.327,0.006l-0.331,0.006l-0.334,0.005l-0.337,0.004l-0.34,0.002l-0.232,-0.001l-0.23,-0.003l-0.229,-0.003l-0.227,-0.005l-0.448,-0.009l-0.444,-0.009l-0.217,-0.003l-0.215,-0.002l-0.214,0l-0.21,0.002l-0.208,0.003l-0.208,0.007l-0.099,0.003l-0.101,0.005l-0.1,0.006l-0.097,0.006l-0.108,0.008l-0.107,0.009l-0.109,0.011l-0.11,0.013l-0.111,0.014l-0.113,0.015l-0.115,0.016l-0.114,0.017l-0.238,0.039l-0.241,0.04l-0.5,0.087l-0.259,0.044l-0.261,0.043l-0.137,0.02l-0.135,0.02l-0.138,0.018l-0.138,0.018l-0.141,0.016l-0.142,0.015l-0.143,0.013l-0.145,0.011l-0.147,0.009l-0.148,0.007l-0.149,0.004l-0.138,0.001l-0.079,-0.002l-0.078,-0.006l-0.077,-0.01l-0.077,-0.015l-0.075,-0.02l-0.075,-0.024l-0.073,-0.028l-0.071,-0.032l-0.069,-0.037l-0.067,-0.04l-0.065,-0.044l-0.061,-0.048l-0.059,-0.052l-0.056,-0.054l-0.053,-0.058l-0.049,-0.061l-0.045,-0.064l-0.042,-0.066l-0.037,-0.068l-0.034,-0.071l-0.03,-0.072l-0.025,-0.074l-0.021,-0.076l-0.017,-0.076l-0.012,-0.077l-0.007,-0.078l-0.003,-0.078l0.001,-0.078l0.006,-0.078l0.011,-0.078l0.015,-0.076l0.02,-0.076l0.024,-0.075l0.028,-0.073l0.032,-0.071l0.037,-0.069l0.04,-0.067l0.044,-0.064l0.048,-0.062l0.051,-0.059l0.055,-0.056l0.058,-0.052l0.061,-0.049l0.064,-0.046l0.066,-0.041l0.068,-0.038l0.071,-0.034l0.072,-0.029l0.074,-0.026l0.075,-0.021l0.077,-0.016l0.077,-0.012l0.078,-0.008l0.078,-0.003l0.114,-0.001l0.101,-0.003l0.104,-0.004l0.104,-0.007l0.107,-0.008l0.107,-0.01l0.109,-0.011l0.111,-0.013l0.111,-0.014l0.114,-0.015l0.114,-0.017l0.115,-0.017l0.238,-0.039l0.242,-0.041l0.501,-0.087l0.259,-0.044l0.262,-0.042l0.136,-0.02l0.136,-0.02l0.137,-0.018l0.139,-0.017l0.141,-0.016l0.142,-0.015l0.143,-0.013l0.143,-0.01l0.123,-0.008l0.121,-0.006l0.121,-0.006l0.122,-0.005l0.237,-0.007l0.238,-0.004l0.236,-0.002l0.235,0l0.232,0.002l0.232,0.004l0.454,0.008l0.448,0.01l0.219,0.004l0.217,0.004l0.215,0.002l0.211,0.001l0.319,-0.002l0.321,-0.003l0.325,-0.006l0.327,-0.006l0.33,-0.006l0.333,-0.006l0.336,-0.003l0.334,-0.002l0.784,0l0.022,-0.005l0.077,-0.014l0.078,-0.009l0.031,-0.002l0.012,-0.001l0.065,-0.008l0.111,-0.007l0.11,-0.001l0.064,0.005Zm-0.33,0.01l-0.026,0.002l0.041,-0.003l-0.015,0.001Z"/>
</svg>